Accuracy: 0.432
Precision: 0.5437671957671958
(0.5437671957671958, 0.42272727272727273, 0.39437025440725726, None)
[[21  2  4  1  0]
 [11 11  0  3  0]
 [ 9  3 12  1  0]
 [ 7  5  2  8  0]
 [ 2  6  3 12  2]]
