['23. Court', '77. Boy', '84. small little', '48. Hello', '40. I', '55. Thank you', '19. House', '51. Good Morning', '78. long', '66. Brother', '46. you (plural)', '97. dry', '28. Store or Shop', '87. hot', '94. good', '83. big large', '44. it', '35. Bank', '79. short', '91. new']
Ges: 1 23. Court
['MVI_3286.MOV', 'MVI_3367.MOV', 'MVI_3611.MOV', 'MVI_3531.MOV', 'MVI_3610.MOV', 'MVI_3452.MOV', 'MVI_3370.MOV', 'MVI_3288.MOV', 'MVI_3285.MOV', 'MVI_3365.MOV', 'MVI_3284.MOV', 'MVI_3612.MOV', 'MVI_3366.MOV', 'MVI_3532.MOV', 'MVI_3609.MOV', 'MVI_3534.MOV', 'MVI_3368.MOV', 'MVI_3613.MOV', 'MVI_3454.MOV', 'MVI_3533.MOV', 'MVI_3455.MOV', 'MVI_3453.MOV', 'MVI_3287.MOV']
Video Count : 1 MVI_3286.MOV
AUG : 0
total 7080
7081
AUG : 1
total 7080
7081
AUG : 2
total 7080
7081
AUG : 3
total 7080
7081
AUG : 4
total 7080
7081
AUG : 5
total 7080
7081
Video Count : 2 MVI_3367.MOV
AUG : 0
total 7080
7081
AUG : 1
total 7080
7081
AUG : 2
total 7080
7081
AUG : 3
total 7080
7081
AUG : 4
total 7080
7081
AUG : 5
total 7080
7081
Video Count : 3 MVI_3611.MOV
AUG : 0
total 6844
7081
AUG : 1
total 6844
7081
AUG : 2
total 6844
7081
AUG : 3
total 6844
7081
AUG : 4
total 6844
7081
AUG : 5
total 6844
7081
Video Count : 4 MVI_3531.MOV
AUG : 0
total 7080
7081
AUG : 1
total 7080
7081
AUG : 2
total 7080
7081
AUG : 3
total 7080
7081
AUG : 4
total 7080
7081
AUG : 5
total 7080
7081
Video Count : 5 MVI_3610.MOV
AUG : 0
total 6608
7081
AUG : 1
total 6608
7081
AUG : 2
total 6608
7081
AUG : 3
total 6608
7081
AUG : 4
total 6608
7081
AUG : 5
total 6608
7081
Video Count : 6 MVI_3452.MOV
AUG : 0
total 7080
7081
AUG : 1
total 7080
7081
AUG : 2
total 7080
7081
AUG : 3
total 7080
7081
AUG : 4
total 7080
7081
AUG : 5
total 7080
7081
Video Count : 7 MVI_3370.MOV
AUG : 0
total 7080
7081
AUG : 1
total 7080
7081
AUG : 2
total 7080
7081
AUG : 3
total 7080
7081
AUG : 4
total 7080
7081
AUG : 5
total 7080
7081
Video Count : 8 MVI_3288.MOV
AUG : 0
total 7080
7081
AUG : 1
total 7080
7081
AUG : 2
total 7080
7081
AUG : 3
total 7080
7081
AUG : 4
total 7080
7081
AUG : 5
total 7080
7081
Video Count : 9 MVI_3285.MOV
AUG : 0
total 7080
7081
AUG : 1
total 7080
7081
AUG : 2
total 7080
7081
AUG : 3
total 7080
7081
AUG : 4
total 7080
7081
AUG : 5
total 7080
7081
Video Count : 10 MVI_3365.MOV
AUG : 0
total 7080
7081
AUG : 1
total 7080
7081
AUG : 2
total 7080
7081
AUG : 3
total 7080
7081
AUG : 4
total 7080
7081
AUG : 5
total 7080
7081
Video Count : 11 MVI_3284.MOV
AUG : 0
total 7080
7081
AUG : 1
total 7080
7081
AUG : 2
total 7080
7081
AUG : 3
total 7080
7081
AUG : 4
total 7080
7081
AUG : 5
total 7080
7081
Video Count : 12 MVI_3612.MOV
AUG : 0
total 7080
7081
AUG : 1
total 7080
7081
AUG : 2
total 7080
7081
AUG : 3
total 7080
7081
AUG : 4
total 7080
7081
AUG : 5
total 7080
7081
Video Count : 13 MVI_3366.MOV
AUG : 0
total 7080
7081
AUG : 1
total 7080
7081
AUG : 2
total 7080
7081
AUG : 3
total 7080
7081
AUG : 4
total 7080
7081
AUG : 5
total 7080
7081
Video Count : 14 MVI_3532.MOV
AUG : 0
total 6608
7081
AUG : 1
total 6608
7081
AUG : 2
total 6608
7081
AUG : 3
total 6608
7081
AUG : 4
total 6608
7081
AUG : 5
total 6608
7081
Video Count : 15 MVI_3609.MOV
AUG : 0
total 7080
7081
AUG : 1
total 7080
7081
AUG : 2
total 7080
7081
AUG : 3
total 7080
7081
AUG : 4
total 7080
7081
AUG : 5
total 7080
7081
Video Count : 16 MVI_3534.MOV
AUG : 0
total 7080
7081
AUG : 1
total 7080
7081
AUG : 2
total 7080
7081
AUG : 3
total 7080
7081
AUG : 4
total 7080
7081
AUG : 5
total 7080
7081
Video Count : 17 MVI_3368.MOV
AUG : 0
total 7080
7081
AUG : 1
total 7080
7081
AUG : 2
total 7080
7081
AUG : 3
total 7080
7081
AUG : 4
total 7080
7081
AUG : 5
total 7080
7081
Video Count : 18 MVI_3613.MOV
AUG : 0
total 7080
7081
AUG : 1
total 7080
7081
AUG : 2
total 7080
7081
AUG : 3
total 7080
7081
AUG : 4
total 7080
7081
AUG : 5
total 7080
7081
Video Count : 19 MVI_3454.MOV
AUG : 0
total 6962
7081
AUG : 1
total 6962
7081
AUG : 2
total 6962
7081
AUG : 3
total 6962
7081
AUG : 4
total 6962
7081
AUG : 5
total 6962
7081
Video Count : 20 MVI_3533.MOV
AUG : 0
total 6372
7081
AUG : 1
total 6372
7081
AUG : 2
total 6372
7081
AUG : 3
total 6372
7081
AUG : 4
total 6372
7081
AUG : 5
total 6372
7081
Video Count : 21 MVI_3455.MOV
AUG : 0
total 6962
7081
AUG : 1
total 6962
7081
AUG : 2
total 6962
7081
AUG : 3
total 6962
7081
AUG : 4
total 6962
7081
AUG : 5
total 6962
7081
Video Count : 22 MVI_3453.MOV
AUG : 0
total 6844
7081
AUG : 1
total 6844
7081
AUG : 2
total 6844
7081
AUG : 3
total 6844
7081
AUG : 4
total 6844
7081
AUG : 5
total 6844
7081
Video Count : 23 MVI_3287.MOV
AUG : 0
total 7080
7081
AUG : 1
total 7080
7081
AUG : 2
total 7080
7081
AUG : 3
total 7080
7081
AUG : 4
total 7080
7081
AUG : 5
total 7080
7081
Ges: 2 77. Boy
['MVI_5287.MOV', 'MVI_4112.MOV', 'MVI_4981.MOV', 'MVI_5133.MOV', 'MVI_3815.MOV', 'MVI_3962.MOV', 'MVI_4111.MOV', 'MVI_3963.MOV', 'MVI_5134.MOV', 'MVI_8644.MP4', 'MVI_5285.MOV', 'MVI_3816.MOV', 'MVI_5286.MOV', 'MVI_3964.MOV', 'MVI_4110.MOV', 'MVI_4242.MOV', 'MVI_4983.MOV', 'MVI_4109.MOV', 'MVI_3814.MOV', 'MVI_4982.MOV', 'MVI_5132.MOV']
Video Count : 1 MVI_5287.MOV
AUG : 0
total 6136
7081
AUG : 1
total 6136
7081
AUG : 2
total 6136
7081
AUG : 3
total 6136
7081
AUG : 4
total 6136
7081
AUG : 5
total 6136
7081
Video Count : 2 MVI_4112.MOV
AUG : 0
total 7080
7081
AUG : 1
total 7080
7081
AUG : 2
total 7080
7081
AUG : 3
total 7080
7081
AUG : 4
total 7080
7081
AUG : 5
total 7080
7081
Video Count : 3 MVI_4981.MOV
AUG : 0
total 6372
7081
AUG : 1
total 6372
7081
AUG : 2
total 6372
7081
AUG : 3
total 6372
7081
AUG : 4
total 6372
7081
AUG : 5
total 6372
7081
Video Count : 4 MVI_5133.MOV
AUG : 0
total 6844
7081
AUG : 1
total 6844
7081
AUG : 2
total 6844
7081
AUG : 3
total 6844
7081
AUG : 4
total 6844
7081
AUG : 5
total 6844
7081
Video Count : 5 MVI_3815.MOV
AUG : 0
total 6844
7081
AUG : 1
total 6844
7081
AUG : 2
total 6844
7081
AUG : 3
total 6844
7081
AUG : 4
total 6844
7081
AUG : 5
total 6844
7081
Video Count : 6 MVI_3962.MOV
AUG : 0
total 7080
7081
AUG : 1
total 7080
7081
AUG : 2
total 7080
7081
AUG : 3
total 7080
7081
AUG : 4
total 7080
7081
AUG : 5
total 7080
7081
Video Count : 7 MVI_4111.MOV
AUG : 0
total 7080
7081
AUG : 1
total 7080
7081
AUG : 2
total 7080
7081
AUG : 3
total 7080
7081
AUG : 4
total 7080
7081
AUG : 5
total 7080
7081
Video Count : 8 MVI_3963.MOV
AUG : 0
total 7080
7081
AUG : 1
total 7080
7081
AUG : 2
total 7080
7081
AUG : 3
total 7080
7081
AUG : 4
total 7080
7081
AUG : 5
total 7080
7081
Video Count : 9 MVI_5134.MOV
AUG : 0
total 7080
7081
AUG : 1
total 7080
7081
AUG : 2
total 7080
7081
AUG : 3
total 7080
7081
AUG : 4
total 7080
7081
AUG : 5
total 7080
7081
Video Count : 10 MVI_8644.MP4
AUG : 0
total 7080
7081
AUG : 1
total 7080
7081
AUG : 2
total 7080
7081
AUG : 3
total 7080
7081
AUG : 4
total 7080
7081
AUG : 5
total 7080
7081
Video Count : 11 MVI_5285.MOV
AUG : 0
total 6490
7081
AUG : 1
total 6490
7081
AUG : 2
total 6490
7081
AUG : 3
total 6490
7081
AUG : 4
total 6490
7081
AUG : 5
total 6490
7081
Video Count : 12 MVI_3816.MOV
AUG : 0
total 6372
7081
AUG : 1
total 6372
7081
AUG : 2
total 6372
7081
AUG : 3
total 6372
7081
AUG : 4
total 6372
7081
AUG : 5
total 6372
7081
Video Count : 13 MVI_5286.MOV
AUG : 0
total 6136
7081
AUG : 1
total 6136
7081
AUG : 2
total 6136
7081
AUG : 3
total 6136
7081
AUG : 4
total 6136
7081
AUG : 5
total 6136
7081
Video Count : 14 MVI_3964.MOV
AUG : 0
total 7080
7081
AUG : 1
total 7080
7081
AUG : 2
total 7080
7081
AUG : 3
total 7080
7081
AUG : 4
total 7080
7081
AUG : 5
total 7080
7081
Video Count : 15 MVI_4110.MOV
AUG : 0
total 7080
7081
AUG : 1
total 7080
7081
AUG : 2
total 7080
7081
AUG : 3
total 7080
7081
AUG : 4
total 7080
7081
AUG : 5
total 7080
7081
Video Count : 16 MVI_4242.MOV
AUG : 0
total 7080
7081
AUG : 1
total 7080
7081
AUG : 2
total 7080
7081
AUG : 3
total 7080
7081
AUG : 4
total 7080
7081
AUG : 5
total 7080
7081
Video Count : 17 MVI_4983.MOV
AUG : 0
total 5900
7081
AUG : 1
total 5900
7081
AUG : 2
total 5900
7081
AUG : 3
total 5900
7081
AUG : 4
total 5900
7081
AUG : 5
total 5900
7081
Video Count : 18 MVI_4109.MOV
AUG : 0
total 7080
7081
AUG : 1
total 7080
7081
AUG : 2
total 7080
7081
AUG : 3
total 7080
7081
AUG : 4
total 7080
7081
AUG : 5
total 7080
7081
Video Count : 19 MVI_3814.MOV
AUG : 0
total 7080
7081
AUG : 1
total 7080
7081
AUG : 2
total 7080
7081
AUG : 3
total 7080
7081
AUG : 4
total 7080
7081
AUG : 5
total 7080
7081
Video Count : 20 MVI_4982.MOV
AUG : 0
total 6018
7081
AUG : 1
total 6018
7081
AUG : 2
total 6018
7081
AUG : 3
total 6018
7081
AUG : 4
total 6018
7081
AUG : 5
total 6018
7081
Video Count : 21 MVI_5132.MOV
AUG : 0
total 6962
7081
AUG : 1
total 6962
7081
AUG : 2
total 6962
7081
AUG : 3
total 6962
7081
AUG : 4
total 6962
7081
AUG : 5
total 6962
7081
Ges: 3 84. small little
['MVI_5287.MOV', 'MVI_9398.MOV', 'MVI_9319.MOV', 'MVI_5128.MOV', 'MVI_5126.MOV', 'MVI_9237.MOV', 'MVI_5207.MOV', 'MVI_9479.MOV', 'MVI_9478.MOV', 'MVI_9397.MOV', 'MVI_9400.MOV', 'MVI_9321.MOV', 'MVI_5288.MOV', 'MVI_9320.MOV', 'MVI_9236.MOV', 'MVI_5286.MOV', 'MVI_5208.MOV', 'MVI_9480.MOV', 'MVI_5206.MOV', 'MVI_5127.MOV', 'MVI_9238.MOV']
Video Count : 1 MVI_5287.MOV
AUG : 0
total 6372
7081
AUG : 1
total 6372
7081
AUG : 2
total 6372
7081
AUG : 3
total 6372
7081
AUG : 4
total 6372
7081
AUG : 5
total 6372
7081
Video Count : 2 MVI_9398.MOV
AUG : 0
total 5900
7081
AUG : 1
total 5900
7081
AUG : 2
total 5900
7081
AUG : 3
total 5900
7081
AUG : 4
total 5900
7081
AUG : 5
total 5900
7081
Video Count : 3 MVI_9319.MOV
AUG : 0
total 6018
7081
AUG : 1
total 6018
7081
AUG : 2
total 6018
7081
AUG : 3
total 6018
7081
AUG : 4
total 6018
7081
AUG : 5
total 6018
7081
Video Count : 4 MVI_5128.MOV
AUG : 0
total 7080
7081
AUG : 1
total 7080
7081
AUG : 2
total 7080
7081
AUG : 3
total 7080
7081
AUG : 4
total 7080
7081
AUG : 5
total 7080
7081
Video Count : 5 MVI_5126.MOV
AUG : 0
total 7080
7081
AUG : 1
total 7080
7081
AUG : 2
total 7080
7081
AUG : 3
total 7080
7081
AUG : 4
total 7080
7081
AUG : 5
total 7080
7081
Video Count : 6 MVI_9237.MOV
AUG : 0
total 6136
7081
AUG : 1
total 6136
7081
AUG : 2
total 6136
7081
AUG : 3
total 6136
7081
AUG : 4
total 6136
7081
AUG : 5
total 6136
7081
Video Count : 7 MVI_5207.MOV
AUG : 0
total 6726
7081
AUG : 1
total 6726
7081
AUG : 2
total 6726
7081
AUG : 3
total 6726
7081
AUG : 4
total 6726
7081
AUG : 5
total 6726
7081
Video Count : 8 MVI_9479.MOV
AUG : 0
total 6136
7081
AUG : 1
total 6136
7081
AUG : 2
total 6136
7081
AUG : 3
total 6136
7081
AUG : 4
total 6136
7081
AUG : 5
total 6136
7081
Video Count : 9 MVI_9478.MOV
AUG : 0
total 6372
7081
AUG : 1
total 6372
7081
AUG : 2
total 6372
7081
AUG : 3
total 6372
7081
AUG : 4
total 6372
7081
AUG : 5
total 6372
7081
Video Count : 10 MVI_9397.MOV
AUG : 0
total 6018
7081
AUG : 1
total 6018
7081
AUG : 2
total 6018
7081
AUG : 3
total 6018
7081
AUG : 4
total 6018
7081
AUG : 5
total 6018
7081
Video Count : 11 MVI_9400.MOV
AUG : 0
total 6254
7081
AUG : 1
total 6254
7081
AUG : 2
total 6254
7081
AUG : 3
total 6254
7081
AUG : 4
total 6254
7081
AUG : 5
total 6254
7081
Video Count : 12 MVI_9321.MOV
AUG : 0
total 6372
7081
AUG : 1
total 6372
7081
AUG : 2
total 6372
7081
AUG : 3
total 6372
7081
AUG : 4
total 6372
7081
AUG : 5
total 6372
7081
Video Count : 13 MVI_5288.MOV
AUG : 0
total 4484
7081
AUG : 1
total 4484
7081
AUG : 2
total 4484
7081
AUG : 3
total 4484
7081
AUG : 4
total 4484
7081
AUG : 5
total 4484
7081
Video Count : 14 MVI_9320.MOV
AUG : 0
total 6136
7081
AUG : 1
total 6136
7081
AUG : 2
total 6136
7081
AUG : 3
total 6136
7081
AUG : 4
total 6136
7081
AUG : 5
total 6136
7081
Video Count : 15 MVI_9236.MOV
AUG : 0
total 5192
7081
AUG : 1
total 5192
7081
AUG : 2
total 5192
7081
AUG : 3
total 5192
7081
AUG : 4
total 5192
7081
AUG : 5
total 5192
7081
Video Count : 16 MVI_5286.MOV
AUG : 0
total 6136
7081
AUG : 1
total 6136
7081
AUG : 2
total 6136
7081
AUG : 3
total 6136
7081
AUG : 4
total 6136
7081
AUG : 5
total 6136
7081
Video Count : 17 MVI_5208.MOV
AUG : 0
total 6844
7081
AUG : 1
total 6844
7081
AUG : 2
total 6844
7081
AUG : 3
total 6844
7081
AUG : 4
total 6844
7081
AUG : 5
total 6844
7081
Video Count : 18 MVI_9480.MOV
AUG : 0
total 6490
7081
AUG : 1
total 6490
7081
AUG : 2
total 6490
7081
AUG : 3
total 6490
7081
AUG : 4
total 6490
7081
AUG : 5
total 6490
7081
Video Count : 19 MVI_5206.MOV
AUG : 0
total 6254
7081
AUG : 1
total 6254
7081
AUG : 2
total 6254
7081
AUG : 3
total 6254
7081
AUG : 4
total 6254
7081
AUG : 5
total 6254
7081
Video Count : 20 MVI_5127.MOV
AUG : 0
total 7080
7081
AUG : 1
total 7080
7081
AUG : 2
total 7080
7081
AUG : 3
total 7080
7081
AUG : 4
total 7080
7081
AUG : 5
total 7080
7081
Video Count : 21 MVI_9238.MOV
AUG : 0
total 6018
7081
AUG : 1
total 6018
7081
AUG : 2
total 6018
7081
AUG : 3
total 6018
7081
AUG : 4
total 6018
7081
AUG : 5
total 6018
7081
Ges: 4 48. Hello
['MVI_9982.MOV', 'MVI_9915.MOV', 'MVI_9954.MOV', 'MVI_9914.MOV', 'MVI_9957.MOV', 'MVI_0089.MOV', 'MVI_9984.MOV', 'MVI_0030.MOV', 'MVI_0091.MOV', 'MVI_9983.MOV', 'MVI_9916.MOV', 'MVI_0029.MOV', 'MVI_9956.MOV', 'MVI_9955.MOV', 'MVI_0032.MOV', 'MVI_0031.MOV', 'MVI_0038.MOV', 'MVI_0037.MOV', 'MVI_0090.MOV', 'MVI_0039.MOV', 'MVI_9917.MOV']
Video Count : 1 MVI_9982.MOV
AUG : 0
total 6018
7081
AUG : 1
total 6018
7081
AUG : 2
total 6018
7081
AUG : 3
total 6018
7081
AUG : 4
total 6018
7081
AUG : 5
total 6018
7081
Video Count : 2 MVI_9915.MOV
AUG : 0
total 6136
7081
AUG : 1
total 6136
7081
AUG : 2
total 6136
7081
AUG : 3
total 6136
7081
AUG : 4
total 6136
7081
AUG : 5
total 6136
7081
Video Count : 3 MVI_9954.MOV
AUG : 0
total 7080
7081
AUG : 1
total 7080
7081
AUG : 2
total 7080
7081
AUG : 3
total 7080
7081
AUG : 4
total 7080
7081
AUG : 5
total 7080
7081
Video Count : 4 MVI_9914.MOV
AUG : 0
total 6254
7081
AUG : 1
total 6254
7081
AUG : 2
total 6254
7081
AUG : 3
total 6254
7081
AUG : 4
total 6254
7081
AUG : 5
total 6254
7081
Video Count : 5 MVI_9957.MOV
AUG : 0
total 7080
7081
AUG : 1
total 7080
7081
AUG : 2
total 7080
7081
AUG : 3
total 7080
7081
AUG : 4
total 7080
7081
AUG : 5
total 7080
7081
Video Count : 6 MVI_0089.MOV
AUG : 0
total 7080
7081
AUG : 1
total 7080
7081
AUG : 2
total 7080
7081
AUG : 3
total 7080
7081
AUG : 4
total 7080
7081
AUG : 5
total 7080
7081
Video Count : 7 MVI_9984.MOV
AUG : 0
total 5546
7081
AUG : 1
total 5546
7081
AUG : 2
total 5546
7081
AUG : 3
total 5546
7081
AUG : 4
total 5546
7081
AUG : 5
total 5546
7081
Video Count : 8 MVI_0030.MOV
AUG : 0
total 7080
7081
AUG : 1
total 7080
7081
AUG : 2
total 7080
7081
AUG : 3
total 7080
7081
AUG : 4
total 7080
7081
AUG : 5
total 7080
7081
Video Count : 9 MVI_0091.MOV
AUG : 0
total 7080
7081
AUG : 1
total 7080
7081
AUG : 2
total 7080
7081
AUG : 3
total 7080
7081
AUG : 4
total 7080
7081
AUG : 5
total 7080
7081
Video Count : 10 MVI_9983.MOV
AUG : 0
total 6254
7081
AUG : 1
total 6254
7081
AUG : 2
total 6254
7081
AUG : 3
total 6254
7081
AUG : 4
total 6254
7081
AUG : 5
total 6254
7081
Video Count : 11 MVI_9916.MOV
AUG : 0
total 5900
7081
AUG : 1
total 5900
7081
AUG : 2
total 5900
7081
AUG : 3
total 5900
7081
AUG : 4
total 5900
7081
AUG : 5
total 5900
7081
Video Count : 12 MVI_0029.MOV
AUG : 0
total 7080
7081
AUG : 1
total 7080
7081
AUG : 2
total 7080
7081
AUG : 3
total 7080
7081
AUG : 4
total 7080
7081
AUG : 5
total 7080
7081
Video Count : 13 MVI_9956.MOV
AUG : 0
total 7080
7081
AUG : 1
total 7080
7081
AUG : 2
total 7080
7081
AUG : 3
total 7080
7081
AUG : 4
total 7080
7081
AUG : 5
total 7080
7081
Video Count : 14 MVI_9955.MOV
AUG : 0
total 7080
7081
AUG : 1
total 7080
7081
AUG : 2
total 7080
7081
AUG : 3
total 7080
7081
AUG : 4
total 7080
7081
AUG : 5
total 7080
7081
Video Count : 15 MVI_0032.MOV
AUG : 0
total 7080
7081
AUG : 1
total 7080
7081
AUG : 2
total 7080
7081
AUG : 3
total 7080
7081
AUG : 4
total 7080
7081
AUG : 5
total 7080
7081
Video Count : 16 MVI_0031.MOV
AUG : 0
total 7080
7081
AUG : 1
total 7080
7081
AUG : 2
total 7080
7081
AUG : 3
total 7080
7081
AUG : 4
total 7080
7081
AUG : 5
total 7080
7081
Video Count : 17 MVI_0038.MOV
AUG : 0
total 6608
7081
AUG : 1
total 6608
7081
AUG : 2
total 6608
7081
AUG : 3
total 6608
7081
AUG : 4
total 6608
7081
AUG : 5
total 6608
7081
Video Count : 18 MVI_0037.MOV
AUG : 0
total 5782
7081
AUG : 1
total 5782
7081
AUG : 2
total 5782
7081
AUG : 3
total 5782
7081
AUG : 4
total 5782
7081
AUG : 5
total 5782
7081
Video Count : 19 MVI_0090.MOV
AUG : 0
total 7080
7081
AUG : 1
total 7080
7081
AUG : 2
total 7080
7081
AUG : 3
total 7080
7081
AUG : 4
total 7080
7081
AUG : 5
total 7080
7081
Video Count : 20 MVI_0039.MOV
AUG : 0
total 6136
7081
AUG : 1
total 6136
7081
AUG : 2
total 6136
7081
AUG : 3
total 6136
7081
AUG : 4
total 6136
7081
AUG : 5
total 6136
7081
Video Count : 21 MVI_9917.MOV
AUG : 0
total 5782
7081
AUG : 1
total 5782
7081
AUG : 2
total 5782
7081
AUG : 3
total 5782
7081
AUG : 4
total 5782
7081
AUG : 5
total 5782
7081
Ges: 5 40. I
['MVI_0002.MOV', 'MVI_9919.MOV', 'MVI_9958.MOV', 'MVI_9920.MOV', 'MVI_9879.MOV', 'MVI_9995.MOV', 'MVI_9957.MOV', 'MVI_9878.MOV', 'MVI_9918.MOV', 'MVI_9922.MOV', 'MVI_9881.MOV', 'MVI_9959.MOV', 'MVI_0065.MOV', 'MVI_0013.MOV', 'MVI_0066.MOV', 'MVI_9880.MOV', 'MVI_0001.MOV', 'MVI_0064.MOV', 'MVI_0003.MOV', 'MVI_0014.MOV', 'MVI_0012.MOV']
Video Count : 1 MVI_0002.MOV
AUG : 0
total 7080
7081
AUG : 1
total 7080
7081
AUG : 2
total 7080
7081
AUG : 3
total 7080
7081
AUG : 4
total 7080
7081
AUG : 5
total 7080
7081
Video Count : 2 MVI_9919.MOV
AUG : 0
total 7080
7081
AUG : 1
total 7080
7081
AUG : 2
total 7080
7081
AUG : 3
total 7080
7081
AUG : 4
total 7080
7081
AUG : 5
total 7080
7081
Video Count : 3 MVI_9958.MOV
AUG : 0
total 5546
7081
AUG : 1
total 5546
7081
AUG : 2
total 5546
7081
AUG : 3
total 5546
7081
AUG : 4
total 5546
7081
AUG : 5
total 5546
7081
Video Count : 4 MVI_9920.MOV
AUG : 0
total 7080
7081
AUG : 1
total 7080
7081
AUG : 2
total 7080
7081
AUG : 3
total 7080
7081
AUG : 4
total 7080
7081
AUG : 5
total 7080
7081
Video Count : 5 MVI_9879.MOV
AUG : 0
total 6254
7081
AUG : 1
total 6254
7081
AUG : 2
total 6254
7081
AUG : 3
total 6254
7081
AUG : 4
total 6254
7081
AUG : 5
total 6254
7081
Video Count : 6 MVI_9995.MOV
AUG : 0
total 7080
7081
AUG : 1
total 7080
7081
AUG : 2
total 7080
7081
AUG : 3
total 7080
7081
AUG : 4
total 7080
7081
AUG : 5
total 7080
7081
Video Count : 7 MVI_9957.MOV
AUG : 0
total 5428
7081
AUG : 1
total 5428
7081
AUG : 2
total 5428
7081
AUG : 3
total 5428
7081
AUG : 4
total 5428
7081
AUG : 5
total 5428
7081
Video Count : 8 MVI_9878.MOV
AUG : 0
total 5664
7081
AUG : 1
total 5664
7081
AUG : 2
total 5664
7081
AUG : 3
total 5664
7081
AUG : 4
total 5664
7081
AUG : 5
total 5664
7081
Video Count : 9 MVI_9918.MOV
AUG : 0
total 7080
7081
AUG : 1
total 7080
7081
AUG : 2
total 7080
7081
AUG : 3
total 7080
7081
AUG : 4
total 7080
7081
AUG : 5
total 7080
7081
Video Count : 10 MVI_9922.MOV
AUG : 0
total 7080
7081
AUG : 1
total 7080
7081
AUG : 2
total 7080
7081
AUG : 3
total 7080
7081
AUG : 4
total 7080
7081
AUG : 5
total 7080
7081
Video Count : 11 MVI_9881.MOV
AUG : 0
total 5900
7081
AUG : 1
total 5900
7081
AUG : 2
total 5900
7081
AUG : 3
total 5900
7081
AUG : 4
total 5900
7081
AUG : 5
total 5900
7081
Video Count : 12 MVI_9959.MOV
AUG : 0
total 5900
7081
AUG : 1
total 5900
7081
AUG : 2
total 5900
7081
AUG : 3
total 5900
7081
AUG : 4
total 5900
7081
AUG : 5
total 5900
7081
Video Count : 13 MVI_0065.MOV
AUG : 0
total 7080
7081
AUG : 1
total 7080
7081
AUG : 2
total 7080
7081
AUG : 3
total 7080
7081
AUG : 4
total 7080
7081
AUG : 5
total 7080
7081
Video Count : 14 MVI_0013.MOV
AUG : 0
total 5074
7081
AUG : 1
total 5074
7081
AUG : 2
total 5074
7081
AUG : 3
total 5074
7081
AUG : 4
total 5074
7081
AUG : 5
total 5074
7081
Video Count : 15 MVI_0066.MOV
AUG : 0
total 7080
7081
AUG : 1
total 7080
7081
AUG : 2
total 7080
7081
AUG : 3
total 7080
7081
AUG : 4
total 7080
7081
AUG : 5
total 7080
7081
Video Count : 16 MVI_9880.MOV
AUG : 0
total 6372
7081
AUG : 1
total 6372
7081
AUG : 2
total 6372
7081
AUG : 3
total 6372
7081
AUG : 4
total 6372
7081
AUG : 5
total 6372
7081
Video Count : 17 MVI_0001.MOV
AUG : 0
total 7080
7081
AUG : 1
total 7080
7081
AUG : 2
total 7080
7081
AUG : 3
total 7080
7081
AUG : 4
total 7080
7081
AUG : 5
total 7080
7081
Video Count : 18 MVI_0064.MOV
AUG : 0
total 7080
7081
AUG : 1
total 7080
7081
AUG : 2
total 7080
7081
AUG : 3
total 7080
7081
AUG : 4
total 7080
7081
AUG : 5
total 7080
7081
Video Count : 19 MVI_0003.MOV
AUG : 0
total 6136
7081
AUG : 1
total 6136
7081
AUG : 2
total 6136
7081
AUG : 3
total 6136
7081
AUG : 4
total 6136
7081
AUG : 5
total 6136
7081
Video Count : 20 MVI_0014.MOV
AUG : 0
total 5310
7081
AUG : 1
total 5310
7081
AUG : 2
total 5310
7081
AUG : 3
total 5310
7081
AUG : 4
total 5310
7081
AUG : 5
total 5310
7081
Video Count : 21 MVI_0012.MOV
AUG : 0
total 5310
7081
AUG : 1
total 5310
7081
AUG : 2
total 5310
7081
AUG : 3
total 5310
7081
AUG : 4
total 5310
7081
AUG : 5
total 5310
7081
Ges: 6 55. Thank you
['MVI_0112.MOV', 'MVI_0111.MOV', 'MVI_0063.MOV', 'MVI_0060.MOV', 'MVI_0062.MOV', 'MVI_0060_.MOV', 'MVI_9984.MOV', 'MVI_0061.MOV', 'MVI_9951.MOV', 'MVI_9985.MOV', 'MVI_9950.MOV', 'MVI_0006.MOV', 'MVI_9986.MOV', 'MVI_0007.MOV', 'MVI_0113.MOV', 'MVI_0058.MOV', 'MVI_9949.MOV', 'MVI_9987.MOV', 'MVI_0059.MOV', 'MVI_9948.MOV', 'MVI_0008.MOV']
Video Count : 1 MVI_0112.MOV
AUG : 0
total 7080
7081
AUG : 1
total 7080
7081
AUG : 2
total 7080
7081
AUG : 3
total 7080
7081
AUG : 4
total 7080
7081
AUG : 5
total 7080
7081
Video Count : 2 MVI_0111.MOV
AUG : 0
total 7080
7081
AUG : 1
total 7080
7081
AUG : 2
total 7080
7081
AUG : 3
total 7080
7081
AUG : 4
total 7080
7081
AUG : 5
total 7080
7081
Video Count : 3 MVI_0063.MOV
AUG : 0
total 7080
7081
AUG : 1
total 7080
7081
AUG : 2
total 7080
7081
AUG : 3
total 7080
7081
AUG : 4
total 7080
7081
AUG : 5
total 7080
7081
Video Count : 4 MVI_0060.MOV
AUG : 0
total 6608
7081
AUG : 1
total 6608
7081
AUG : 2
total 6608
7081
AUG : 3
total 6608
7081
AUG : 4
total 6608
7081
AUG : 5
total 6608
7081
Video Count : 5 MVI_0062.MOV
AUG : 0
total 7080
7081
AUG : 1
total 7080
7081
AUG : 2
total 7080
7081
AUG : 3
total 7080
7081
AUG : 4
total 7080
7081
AUG : 5
total 7080
7081
Video Count : 6 MVI_0060_.MOV
AUG : 0
total 7080
7081
AUG : 1
total 7080
7081
AUG : 2
total 7080
7081
AUG : 3
total 7080
7081
AUG : 4
total 7080
7081
AUG : 5
total 7080
7081
Video Count : 7 MVI_9984.MOV
AUG : 0
total 7080
7081
AUG : 1
total 7080
7081
AUG : 2
total 7080
7081
AUG : 3
total 7080
7081
AUG : 4
total 7080
7081
AUG : 5
total 7080
7081
Video Count : 8 MVI_0061.MOV
AUG : 0
total 7080
7081
AUG : 1
total 7080
7081
AUG : 2
total 7080
7081
AUG : 3
total 7080
7081
AUG : 4
total 7080
7081
AUG : 5
total 7080
7081
Video Count : 9 MVI_9951.MOV
AUG : 0
total 6372
7081
AUG : 1
total 6372
7081
AUG : 2
total 6372
7081
AUG : 3
total 6372
7081
AUG : 4
total 6372
7081
AUG : 5
total 6372
7081
Video Count : 10 MVI_9985.MOV
AUG : 0
total 7080
7081
AUG : 1
total 7080
7081
AUG : 2
total 7080
7081
AUG : 3
total 7080
7081
AUG : 4
total 7080
7081
AUG : 5
total 7080
7081
Video Count : 11 MVI_9950.MOV
AUG : 0
total 6136
7081
AUG : 1
total 6136
7081
AUG : 2
total 6136
7081
AUG : 3
total 6136
7081
AUG : 4
total 6136
7081
AUG : 5
total 6136
7081
Video Count : 12 MVI_0006.MOV
AUG : 0
total 6254
7081
AUG : 1
total 6254
7081
AUG : 2
total 6254
7081
AUG : 3
total 6254
7081
AUG : 4
total 6254
7081
AUG : 5
total 6254
7081
Video Count : 13 MVI_9986.MOV
AUG : 0
total 6608
7081
AUG : 1
total 6608
7081
AUG : 2
total 6608
7081
AUG : 3
total 6608
7081
AUG : 4
total 6608
7081
AUG : 5
total 6608
7081
Video Count : 14 MVI_0007.MOV
AUG : 0
total 6608
7081
AUG : 1
total 6608
7081
AUG : 2
total 6608
7081
AUG : 3
total 6608
7081
AUG : 4
total 6608
7081
AUG : 5
total 6608
7081
Video Count : 15 MVI_0113.MOV
AUG : 0
total 7080
7081
AUG : 1
total 7080
7081
AUG : 2
total 7080
7081
AUG : 3
total 7080
7081
AUG : 4
total 7080
7081
AUG : 5
total 7080
7081
Video Count : 16 MVI_0058.MOV
AUG : 0
total 7080
7081
AUG : 1
total 7080
7081
AUG : 2
total 7080
7081
AUG : 3
total 7080
7081
AUG : 4
total 7080
7081
AUG : 5
total 7080
7081
Video Count : 17 MVI_9949.MOV
AUG : 0
total 6726
7081
AUG : 1
total 6726
7081
AUG : 2
total 6726
7081
AUG : 3
total 6726
7081
AUG : 4
total 6726
7081
AUG : 5
total 6726
7081
Video Count : 18 MVI_9987.MOV
AUG : 0
total 7080
7081
AUG : 1
total 7080
7081
AUG : 2
total 7080
7081
AUG : 3
total 7080
7081
AUG : 4
total 7080
7081
AUG : 5
total 7080
7081
Video Count : 19 MVI_0059.MOV
AUG : 0
total 6608
7081
AUG : 1
total 6608
7081
AUG : 2
total 6608
7081
AUG : 3
total 6608
7081
AUG : 4
total 6608
7081
AUG : 5
total 6608
7081
Video Count : 20 MVI_9948.MOV
AUG : 0
total 6254
7081
AUG : 1
total 6254
7081
AUG : 2
total 6254
7081
AUG : 3
total 6254
7081
AUG : 4
total 6254
7081
AUG : 5
total 6254
7081
Video Count : 21 MVI_0008.MOV
AUG : 0
total 6726
7081
AUG : 1
total 6726
7081
AUG : 2
total 6726
7081
AUG : 3
total 6726
7081
AUG : 4
total 6726
7081
AUG : 5
total 6726
7081
Ges: 7 19. House
['MVI_3267.MOV', 'MVI_3437.MOV', 'MVI_3349.MOV', 'MVI_3268.MOV', 'MVI_3350.MOV', 'MVI_3594.MOV', 'MVI_3351.MOV', 'MVI_3435.MOV', 'MVI_3515.MOV', 'MVI_3595.MOV', 'MVI_3513.MOV', 'MVI_3436.MOV', 'MVI_3516.MOV', 'MVI_3593.MOV', 'MVI_3596.MOV', 'MVI_3439.MOV', 'MVI_3514.MOV', 'MVI_3438.MOV', 'MVI_3270.MOV', 'MVI_3269.MOV', 'MVI_3352.MOV']
Video Count : 1 MVI_3267.MOV
AUG : 0
total 7080
7081
AUG : 1
total 7080
7081
AUG : 2
total 7080
7081
AUG : 3
total 7080
7081
AUG : 4
total 7080
7081
AUG : 5
total 7080
7081
Video Count : 2 MVI_3437.MOV
AUG : 0
total 7080
7081
AUG : 1
total 7080
7081
AUG : 2
total 7080
7081
AUG : 3
total 7080
7081
AUG : 4
total 7080
7081
AUG : 5
total 7080
7081
Video Count : 3 MVI_3349.MOV
AUG : 0
total 7080
7081
AUG : 1
total 7080
7081
AUG : 2
total 7080
7081
AUG : 3
total 7080
7081
AUG : 4
total 7080
7081
AUG : 5
total 7080
7081
Video Count : 4 MVI_3268.MOV
AUG : 0
total 7080
7081
AUG : 1
total 7080
7081
AUG : 2
total 7080
7081
AUG : 3
total 7080
7081
AUG : 4
total 7080
7081
AUG : 5
total 7080
7081
Video Count : 5 MVI_3350.MOV
AUG : 0
total 6372
7081
AUG : 1
total 6372
7081
AUG : 2
total 6372
7081
AUG : 3
total 6372
7081
AUG : 4
total 6372
7081
AUG : 5
total 6372
7081
Video Count : 6 MVI_3594.MOV
AUG : 0
total 6726
7081
AUG : 1
total 6726
7081
AUG : 2
total 6726
7081
AUG : 3
total 6726
7081
AUG : 4
total 6726
7081
AUG : 5
total 6726
7081
Video Count : 7 MVI_3351.MOV
AUG : 0
total 6844
7081
AUG : 1
total 6844
7081
AUG : 2
total 6844
7081
AUG : 3
total 6844
7081
AUG : 4
total 6844
7081
AUG : 5
total 6844
7081
Video Count : 8 MVI_3435.MOV
AUG : 0
total 7080
7081
AUG : 1
total 7080
7081
AUG : 2
total 7080
7081
AUG : 3
total 7080
7081
AUG : 4
total 7080
7081
AUG : 5
total 7080
7081
Video Count : 9 MVI_3515.MOV
AUG : 0
total 5310
7081
AUG : 1
total 5310
7081
AUG : 2
total 5310
7081
AUG : 3
total 5310
7081
AUG : 4
total 5310
7081
AUG : 5
total 5310
7081
Video Count : 10 MVI_3595.MOV
AUG : 0
total 6844
7081
AUG : 1
total 6844
7081
AUG : 2
total 6844
7081
AUG : 3
total 6844
7081
AUG : 4
total 6844
7081
AUG : 5
total 6844
7081
Video Count : 11 MVI_3513.MOV
AUG : 0
total 6254
7081
AUG : 1
total 6254
7081
AUG : 2
total 6254
7081
AUG : 3
total 6254
7081
AUG : 4
total 6254
7081
AUG : 5
total 6254
7081
Video Count : 12 MVI_3436.MOV
AUG : 0
total 7080
7081
AUG : 1
total 7080
7081
AUG : 2
total 7080
7081
AUG : 3
total 7080
7081
AUG : 4
total 7080
7081
AUG : 5
total 7080
7081
Video Count : 13 MVI_3516.MOV
AUG : 0
total 5664
7081
AUG : 1
total 5664
7081
AUG : 2
total 5664
7081
AUG : 3
total 5664
7081
AUG : 4
total 5664
7081
AUG : 5
total 5664
7081
Video Count : 14 MVI_3593.MOV
AUG : 0
total 7080
7081
AUG : 1
total 7080
7081
AUG : 2
total 7080
7081
AUG : 3
total 7080
7081
AUG : 4
total 7080
7081
AUG : 5
total 7080
7081
Video Count : 15 MVI_3596.MOV
AUG : 0
total 6372
7081
AUG : 1
total 6372
7081
AUG : 2
total 6372
7081
AUG : 3
total 6372
7081
AUG : 4
total 6372
7081
AUG : 5
total 6372
7081
Video Count : 16 MVI_3439.MOV
AUG : 0
total 6726
7081
AUG : 1
total 6726
7081
AUG : 2
total 6726
7081
AUG : 3
total 6726
7081
AUG : 4
total 6726
7081
AUG : 5
total 6726
7081
Video Count : 17 MVI_3514.MOV
AUG : 0
total 5664
7081
AUG : 1
total 5664
7081
AUG : 2
total 5664
7081
AUG : 3
total 5664
7081
AUG : 4
total 5664
7081
AUG : 5
total 5664
7081
Video Count : 18 MVI_3438.MOV
AUG : 0
total 6844
7081
AUG : 1
total 6844
7081
AUG : 2
total 6844
7081
AUG : 3
total 6844
7081
AUG : 4
total 6844
7081
AUG : 5
total 6844
7081
Video Count : 19 MVI_3270.MOV
AUG : 0
total 7080
7081
AUG : 1
total 7080
7081
AUG : 2
total 7080
7081
AUG : 3
total 7080
7081
AUG : 4
total 7080
7081
AUG : 5
total 7080
7081
Video Count : 20 MVI_3269.MOV
AUG : 0
total 7080
7081
AUG : 1
total 7080
7081
AUG : 2
total 7080
7081
AUG : 3
total 7080
7081
AUG : 4
total 7080
7081
AUG : 5
total 7080
7081
Video Count : 21 MVI_3352.MOV
AUG : 0
total 6608
7081
AUG : 1
total 6608
7081
AUG : 2
total 6608
7081
AUG : 3
total 6608
7081
AUG : 4
total 6608
7081
AUG : 5
total 6608
7081
Ges: 8 51. Good Morning
['MVI_0099.MOV', 'MVI_0046.MOV', 'MVI_9969.MOV', 'MVI_0098.MOV', 'MVI_9993.MOV', 'MVI_9935.MOV', 'MVI_0048.MOV', 'MVI_9934.MOV', 'MVI_0042.MOV', 'MVI_0100.MOV', 'MVI_0045.MOV', 'MVI_9971.MOV', 'MVI_9968.MOV', 'MVI_9992.MOV', 'MVI_9991.MOV', 'MVI_0043.MOV', 'MVI_0044.MOV', 'MVI_9932.MOV', 'MVI_0047.MOV', 'MVI_9970.MOV', 'MVI_9933.MOV']
Video Count : 1 MVI_0099.MOV
AUG : 0
total 7080
7081
AUG : 1
total 7080
7081
AUG : 2
total 7080
7081
AUG : 3
total 7080
7081
AUG : 4
total 7080
7081
AUG : 5
total 7080
7081
Video Count : 2 MVI_0046.MOV
AUG : 0
total 7080
7081
AUG : 1
total 7080
7081
AUG : 2
total 7080
7081
AUG : 3
total 7080
7081
AUG : 4
total 7080
7081
AUG : 5
total 7080
7081
Video Count : 3 MVI_9969.MOV
AUG : 0
total 7080
7081
AUG : 1
total 7080
7081
AUG : 2
total 7080
7081
AUG : 3
total 7080
7081
AUG : 4
total 7080
7081
AUG : 5
total 7080
7081
Video Count : 4 MVI_0098.MOV
AUG : 0
total 7080
7081
AUG : 1
total 7080
7081
AUG : 2
total 7080
7081
AUG : 3
total 7080
7081
AUG : 4
total 7080
7081
AUG : 5
total 7080
7081
Video Count : 5 MVI_9993.MOV
AUG : 0
total 7080
7081
AUG : 1
total 7080
7081
AUG : 2
total 7080
7081
AUG : 3
total 7080
7081
AUG : 4
total 7080
7081
AUG : 5
total 7080
7081
Video Count : 6 MVI_9935.MOV
AUG : 0
total 5664
7081
AUG : 1
total 5664
7081
AUG : 2
total 5664
7081
AUG : 3
total 5664
7081
AUG : 4
total 5664
7081
AUG : 5
total 5664
7081
Video Count : 7 MVI_0048.MOV
AUG : 0
total 4838
7081
AUG : 1
total 4838
7081
AUG : 2
total 4838
7081
AUG : 3
total 4838
7081
AUG : 4
total 4838
7081
AUG : 5
total 4838
7081
Video Count : 8 MVI_9934.MOV
AUG : 0
total 6608
7081
AUG : 1
total 6608
7081
AUG : 2
total 6608
7081
AUG : 3
total 6608
7081
AUG : 4
total 6608
7081
AUG : 5
total 6608
7081
Video Count : 9 MVI_0042.MOV
AUG : 0
total 7080
7081
AUG : 1
total 7080
7081
AUG : 2
total 7080
7081
AUG : 3
total 7080
7081
AUG : 4
total 7080
7081
AUG : 5
total 7080
7081
Video Count : 10 MVI_0100.MOV
AUG : 0
total 7080
7081
AUG : 1
total 7080
7081
AUG : 2
total 7080
7081
AUG : 3
total 7080
7081
AUG : 4
total 7080
7081
AUG : 5
total 7080
7081
Video Count : 11 MVI_0045.MOV
AUG : 0
total 7080
7081
AUG : 1
total 7080
7081
AUG : 2
total 7080
7081
AUG : 3
total 7080
7081
AUG : 4
total 7080
7081
AUG : 5
total 7080
7081
Video Count : 12 MVI_9971.MOV
AUG : 0
total 7080
7081
AUG : 1
total 7080
7081
AUG : 2
total 7080
7081
AUG : 3
total 7080
7081
AUG : 4
total 7080
7081
AUG : 5
total 7080
7081
Video Count : 13 MVI_9968.MOV
AUG : 0
total 7080
7081
AUG : 1
total 7080
7081
AUG : 2
total 7080
7081
AUG : 3
total 7080
7081
AUG : 4
total 7080
7081
AUG : 5
total 7080
7081
Video Count : 14 MVI_9992.MOV
AUG : 0
total 6844
7081
AUG : 1
total 6844
7081
AUG : 2
total 6844
7081
AUG : 3
total 6844
7081
AUG : 4
total 6844
7081
AUG : 5
total 6844
7081
Video Count : 15 MVI_9991.MOV
AUG : 0
total 6844
7081
AUG : 1
total 6844
7081
AUG : 2
total 6844
7081
AUG : 3
total 6844
7081
AUG : 4
total 6844
7081
AUG : 5
total 6844
7081
Video Count : 16 MVI_0043.MOV
AUG : 0
total 7080
7081
AUG : 1
total 7080
7081
AUG : 2
total 7080
7081
AUG : 3
total 7080
7081
AUG : 4
total 7080
7081
AUG : 5
total 7080
7081
Video Count : 17 MVI_0044.MOV
AUG : 0
total 7080
7081
AUG : 1
total 7080
7081
AUG : 2
total 7080
7081
AUG : 3
total 7080
7081
AUG : 4
total 7080
7081
AUG : 5
total 7080
7081
Video Count : 18 MVI_9932.MOV
AUG : 0
total 6608
7081
AUG : 1
total 6608
7081
AUG : 2
total 6608
7081
AUG : 3
total 6608
7081
AUG : 4
total 6608
7081
AUG : 5
total 6608
7081
Video Count : 19 MVI_0047.MOV
AUG : 0
total 6962
7081
AUG : 1
total 6962
7081
AUG : 2
total 6962
7081
AUG : 3
total 6962
7081
AUG : 4
total 6962
7081
AUG : 5
total 6962
7081
Video Count : 20 MVI_9970.MOV
AUG : 0
total 7080
7081
AUG : 1
total 7080
7081
AUG : 2
total 7080
7081
AUG : 3
total 7080
7081
AUG : 4
total 7080
7081
AUG : 5
total 7080
7081
Video Count : 21 MVI_9933.MOV
AUG : 0
total 6254
7081
AUG : 1
total 6254
7081
AUG : 2
total 6254
7081
AUG : 3
total 6254
7081
AUG : 4
total 6254
7081
AUG : 5
total 6254
7081
Ges: 9 78. long
['MVI_9458.MOV', 'MVI_9378.MOV', 'MVI_5266.MOV', 'MVI_5187.MOV', 'MVI_9300.MOV', 'MVI_9460.MOV', 'MVI_9218.MOV', 'MVI_5186.MOV', 'MVI_5267.MOV', 'MVI_9217.MOV', 'MVI_5106.MOV', 'MVI_5108.MOV', 'MVI_9219.MOV', 'MVI_9377.MOV', 'MVI_9459.MOV', 'MVI_5188.MOV', 'MVI_9379.MOV', 'MVI_9298.MOV', 'MVI_9299.MOV', 'MVI_5107.MOV', 'MVI_5268.MOV']
Video Count : 1 MVI_9458.MOV
AUG : 0
total 6608
7081
AUG : 1
total 6608
7081
AUG : 2
total 6608
7081
AUG : 3
total 6608
7081
AUG : 4
total 6608
7081
AUG : 5
total 6608
7081
Video Count : 2 MVI_9378.MOV
AUG : 0
total 6136
7081
AUG : 1
total 6136
7081
AUG : 2
total 6136
7081
AUG : 3
total 6136
7081
AUG : 4
total 6136
7081
AUG : 5
total 6136
7081
Video Count : 3 MVI_5266.MOV
AUG : 0
total 7080
7081
AUG : 1
total 7080
7081
AUG : 2
total 7080
7081
AUG : 3
total 7080
7081
AUG : 4
total 7080
7081
AUG : 5
total 7080
7081
Video Count : 4 MVI_5187.MOV
AUG : 0
total 7080
7081
AUG : 1
total 7080
7081
AUG : 2
total 7080
7081
AUG : 3
total 7080
7081
AUG : 4
total 7080
7081
AUG : 5
total 7080
7081
Video Count : 5 MVI_9300.MOV
AUG : 0
total 6608
7081
AUG : 1
total 6608
7081
AUG : 2
total 6608
7081
AUG : 3
total 6608
7081
AUG : 4
total 6608
7081
AUG : 5
total 6608
7081
Video Count : 6 MVI_9460.MOV
AUG : 0
total 6136
7081
AUG : 1
total 6136
7081
AUG : 2
total 6136
7081
AUG : 3
total 6136
7081
AUG : 4
total 6136
7081
AUG : 5
total 6136
7081
Video Count : 7 MVI_9218.MOV
AUG : 0
total 6254
7081
AUG : 1
total 6254
7081
AUG : 2
total 6254
7081
AUG : 3
total 6254
7081
AUG : 4
total 6254
7081
AUG : 5
total 6254
7081
Video Count : 8 MVI_5186.MOV
AUG : 0
total 7080
7081
AUG : 1
total 7080
7081
AUG : 2
total 7080
7081
AUG : 3
total 7080
7081
AUG : 4
total 7080
7081
AUG : 5
total 7080
7081
Video Count : 9 MVI_5267.MOV
AUG : 0
total 7080
7081
AUG : 1
total 7080
7081
AUG : 2
total 7080
7081
AUG : 3
total 7080
7081
AUG : 4
total 7080
7081
AUG : 5
total 7080
7081
Video Count : 10 MVI_9217.MOV
AUG : 0
total 6136
7081
AUG : 1
total 6136
7081
AUG : 2
total 6136
7081
AUG : 3
total 6136
7081
AUG : 4
total 6136
7081
AUG : 5
total 6136
7081
Video Count : 11 MVI_5106.MOV
AUG : 0
total 7080
7081
AUG : 1
total 7080
7081
AUG : 2
total 7080
7081
AUG : 3
total 7080
7081
AUG : 4
total 7080
7081
AUG : 5
total 7080
7081
Video Count : 12 MVI_5108.MOV
AUG : 0
total 7080
7081
AUG : 1
total 7080
7081
AUG : 2
total 7080
7081
AUG : 3
total 7080
7081
AUG : 4
total 7080
7081
AUG : 5
total 7080
7081
Video Count : 13 MVI_9219.MOV
AUG : 0
total 6254
7081
AUG : 1
total 6254
7081
AUG : 2
total 6254
7081
AUG : 3
total 6254
7081
AUG : 4
total 6254
7081
AUG : 5
total 6254
7081
Video Count : 14 MVI_9377.MOV
AUG : 0
total 6254
7081
AUG : 1
total 6254
7081
AUG : 2
total 6254
7081
AUG : 3
total 6254
7081
AUG : 4
total 6254
7081
AUG : 5
total 6254
7081
Video Count : 15 MVI_9459.MOV
AUG : 0
total 6018
7081
AUG : 1
total 6018
7081
AUG : 2
total 6018
7081
AUG : 3
total 6018
7081
AUG : 4
total 6018
7081
AUG : 5
total 6018
7081
Video Count : 16 MVI_5188.MOV
AUG : 0
total 6018
7081
AUG : 1
total 6018
7081
AUG : 2
total 6018
7081
AUG : 3
total 6018
7081
AUG : 4
total 6018
7081
AUG : 5
total 6018
7081
Video Count : 17 MVI_9379.MOV
AUG : 0
total 6136
7081
AUG : 1
total 6136
7081
AUG : 2
total 6136
7081
AUG : 3
total 6136
7081
AUG : 4
total 6136
7081
AUG : 5
total 6136
7081
Video Count : 18 MVI_9298.MOV
AUG : 0
total 6254
7081
AUG : 1
total 6254
7081
AUG : 2
total 6254
7081
AUG : 3
total 6254
7081
AUG : 4
total 6254
7081
AUG : 5
total 6254
7081
Video Count : 19 MVI_9299.MOV
AUG : 0
total 5900
7081
AUG : 1
total 5900
7081
AUG : 2
total 5900
7081
AUG : 3
total 5900
7081
AUG : 4
total 5900
7081
AUG : 5
total 5900
7081
Video Count : 20 MVI_5107.MOV
AUG : 0
total 7080
7081
AUG : 1
total 7080
7081
AUG : 2
total 7080
7081
AUG : 3
total 7080
7081
AUG : 4
total 7080
7081
AUG : 5
total 7080
7081
Video Count : 21 MVI_5268.MOV
AUG : 0
total 7080
7081
AUG : 1
total 7080
7081
AUG : 2
total 7080
7081
AUG : 3
total 7080
7081
AUG : 4
total 7080
7081
AUG : 5
total 7080
7081
Ges: 10 66. Brother
['MVI_4956.MOV', 'MVI_4230.MOV', 'MVI_5096.MOV', 'MVI_3779.MOV', 'MVI_4957.MOV', 'MVI_3927.MOV', 'MVI_3928.MOV', 'MVI_4076.MOV', 'MVI_4955.MOV', 'MVI_5243.MOV', 'MVI_4075.MOV', 'MVI_5095.MOV', 'MVI_5097.MOV', 'MVI_3778.MOV', 'MVI_5244.MOV', 'MVI_3780.MOV', 'MVI_5245.MOV', 'MVI_3929.MOV', 'MVI_3781.MOV', 'MVI_8631.MP4', 'MVI_4077.MOV']
Video Count : 1 MVI_4956.MOV
AUG : 0
total 6136
7081
AUG : 1
total 6136
7081
AUG : 2
total 6136
7081
AUG : 3
total 6136
7081
AUG : 4
total 6136
7081
AUG : 5
total 6136
7081
Video Count : 2 MVI_4230.MOV
AUG : 0
total 6018
7081
AUG : 1
total 6018
7081
AUG : 2
total 6018
7081
AUG : 3
total 6018
7081
AUG : 4
total 6018
7081
AUG : 5
total 6018
7081
Video Count : 3 MVI_5096.MOV
AUG : 0
total 7080
7081
AUG : 1
total 7080
7081
AUG : 2
total 7080
7081
AUG : 3
total 7080
7081
AUG : 4
total 7080
7081
AUG : 5
total 7080
7081
Video Count : 4 MVI_3779.MOV
AUG : 0
total 6726
7081
AUG : 1
total 6726
7081
AUG : 2
total 6726
7081
AUG : 3
total 6726
7081
AUG : 4
total 6726
7081
AUG : 5
total 6726
7081
Video Count : 5 MVI_4957.MOV
AUG : 0
total 6372
7081
AUG : 1
total 6372
7081
AUG : 2
total 6372
7081
AUG : 3
total 6372
7081
AUG : 4
total 6372
7081
AUG : 5
total 6372
7081
Video Count : 6 MVI_3927.MOV
AUG : 0
total 7080
7081
AUG : 1
total 7080
7081
AUG : 2
total 7080
7081
AUG : 3
total 7080
7081
AUG : 4
total 7080
7081
AUG : 5
total 7080
7081
Video Count : 7 MVI_3928.MOV
AUG : 0
total 7080
7081
AUG : 1
total 7080
7081
AUG : 2
total 7080
7081
AUG : 3
total 7080
7081
AUG : 4
total 7080
7081
AUG : 5
total 7080
7081
Video Count : 8 MVI_4076.MOV
AUG : 0
total 6608
7081
AUG : 1
total 6608
7081
AUG : 2
total 6608
7081
AUG : 3
total 6608
7081
AUG : 4
total 6608
7081
AUG : 5
total 6608
7081
Video Count : 9 MVI_4955.MOV
AUG : 0
total 4838
7081
AUG : 1
total 4838
7081
AUG : 2
total 4838
7081
AUG : 3
total 4838
7081
AUG : 4
total 4838
7081
AUG : 5
total 4838
7081
Video Count : 10 MVI_5243.MOV
AUG : 0
total 6726
7081
AUG : 1
total 6726
7081
AUG : 2
total 6726
7081
AUG : 3
total 6726
7081
AUG : 4
total 6726
7081
AUG : 5
total 6726
7081
Video Count : 11 MVI_4075.MOV
AUG : 0
total 7080
7081
AUG : 1
total 7080
7081
AUG : 2
total 7080
7081
AUG : 3
total 7080
7081
AUG : 4
total 7080
7081
AUG : 5
total 7080
7081
Video Count : 12 MVI_5095.MOV
AUG : 0
total 6962
7081
AUG : 1
total 6962
7081
AUG : 2
total 6962
7081
AUG : 3
total 6962
7081
AUG : 4
total 6962
7081
AUG : 5
total 6962
7081
Video Count : 13 MVI_5097.MOV
AUG : 0
total 7080
7081
AUG : 1
total 7080
7081
AUG : 2
total 7080
7081
AUG : 3
total 7080
7081
AUG : 4
total 7080
7081
AUG : 5
total 7080
7081
Video Count : 14 MVI_3778.MOV
AUG : 0
total 6962
7081
AUG : 1
total 6962
7081
AUG : 2
total 6962
7081
AUG : 3
total 6962
7081
AUG : 4
total 6962
7081
AUG : 5
total 6962
7081
Video Count : 15 MVI_5244.MOV
AUG : 0
total 7080
7081
AUG : 1
total 7080
7081
AUG : 2
total 7080
7081
AUG : 3
total 7080
7081
AUG : 4
total 7080
7081
AUG : 5
total 7080
7081
Video Count : 16 MVI_3780.MOV
AUG : 0
total 6844
7081
AUG : 1
total 6844
7081
AUG : 2
total 6844
7081
AUG : 3
total 6844
7081
AUG : 4
total 6844
7081
AUG : 5
total 6844
7081
Video Count : 17 MVI_5245.MOV
AUG : 0
total 7080
7081
AUG : 1
total 7080
7081
AUG : 2
total 7080
7081
AUG : 3
total 7080
7081
AUG : 4
total 7080
7081
AUG : 5
total 7080
7081
Video Count : 18 MVI_3929.MOV
AUG : 0
total 7080
7081
AUG : 1
total 7080
7081
AUG : 2
total 7080
7081
AUG : 3
total 7080
7081
AUG : 4
total 7080
7081
AUG : 5
total 7080
7081
Video Count : 19 MVI_3781.MOV
AUG : 0
total 7080
7081
AUG : 1
total 7080
7081
AUG : 2
total 7080
7081
AUG : 3
total 7080
7081
AUG : 4
total 7080
7081
AUG : 5
total 7080
7081
Video Count : 20 MVI_8631.MP4
AUG : 0
total 7080
7081
AUG : 1
total 7080
7081
AUG : 2
total 7080
7081
AUG : 3
total 7080
7081
AUG : 4
total 7080
7081
AUG : 5
total 7080
7081
Video Count : 21 MVI_4077.MOV
AUG : 0
total 6254
7081
AUG : 1
total 6254
7081
AUG : 2
total 6254
7081
AUG : 3
total 6254
7081
AUG : 4
total 6254
7081
AUG : 5
total 6254
7081
Ges: 11 46. you (plural)
['MVI_9977.MOV', 'MVI_9976.MOV', 'MVI_9905.MOV', 'MVI_9946.MOV', 'MVI_9908.MOV', 'MVI_9909.MOV', 'MVI_0030.MOV', 'MVI_9975.MOV', 'MVI_0023.MOV', 'MVI_0032.MOV', 'MVI_0031.MOV', 'MVI_0022.MOV', 'MVI_9945.MOV', 'MVI_9947.MOV', 'MVI_0083.MOV', 'MVI_9907.MOV', 'MVI_0024.MOV', 'MVI_0084.MOV', 'MVI_0082.MOV', 'MVI_9948.MOV', 'MVI_0021.MOV']
Video Count : 1 MVI_9977.MOV
AUG : 0
total 7080
7081
AUG : 1
total 7080
7081
AUG : 2
total 7080
7081
AUG : 3
total 7080
7081
AUG : 4
total 7080
7081
AUG : 5
total 7080
7081
Video Count : 2 MVI_9976.MOV
AUG : 0
total 7080
7081
AUG : 1
total 7080
7081
AUG : 2
total 7080
7081
AUG : 3
total 7080
7081
AUG : 4
total 7080
7081
AUG : 5
total 7080
7081
Video Count : 3 MVI_9905.MOV
AUG : 0
total 6608
7081
AUG : 1
total 6608
7081
AUG : 2
total 6608
7081
AUG : 3
total 6608
7081
AUG : 4
total 6608
7081
AUG : 5
total 6608
7081
Video Count : 4 MVI_9946.MOV
AUG : 0
total 7080
7081
AUG : 1
total 7080
7081
AUG : 2
total 7080
7081
AUG : 3
total 7080
7081
AUG : 4
total 7080
7081
AUG : 5
total 7080
7081
Video Count : 5 MVI_9908.MOV
AUG : 0
total 6018
7081
AUG : 1
total 6018
7081
AUG : 2
total 6018
7081
AUG : 3
total 6018
7081
AUG : 4
total 6018
7081
AUG : 5
total 6018
7081
Video Count : 6 MVI_9909.MOV
AUG : 0
total 6726
7081
AUG : 1
total 6726
7081
AUG : 2
total 6726
7081
AUG : 3
total 6726
7081
AUG : 4
total 6726
7081
AUG : 5
total 6726
7081
Video Count : 7 MVI_0030.MOV
AUG : 0
total 7080
7081
AUG : 1
total 7080
7081
AUG : 2
total 7080
7081
AUG : 3
total 7080
7081
AUG : 4
total 7080
7081
AUG : 5
total 7080
7081
Video Count : 8 MVI_9975.MOV
AUG : 0
total 7080
7081
AUG : 1
total 7080
7081
AUG : 2
total 7080
7081
AUG : 3
total 7080
7081
AUG : 4
total 7080
7081
AUG : 5
total 7080
7081
Video Count : 9 MVI_0023.MOV
AUG : 0
total 7080
7081
AUG : 1
total 7080
7081
AUG : 2
total 7080
7081
AUG : 3
total 7080
7081
AUG : 4
total 7080
7081
AUG : 5
total 7080
7081
Video Count : 10 MVI_0032.MOV
AUG : 0
total 6608
7081
AUG : 1
total 6608
7081
AUG : 2
total 6608
7081
AUG : 3
total 6608
7081
AUG : 4
total 6608
7081
AUG : 5
total 6608
7081
Video Count : 11 MVI_0031.MOV
AUG : 0
total 7080
7081
AUG : 1
total 7080
7081
AUG : 2
total 7080
7081
AUG : 3
total 7080
7081
AUG : 4
total 7080
7081
AUG : 5
total 7080
7081
Video Count : 12 MVI_0022.MOV
AUG : 0
total 7080
7081
AUG : 1
total 7080
7081
AUG : 2
total 7080
7081
AUG : 3
total 7080
7081
AUG : 4
total 7080
7081
AUG : 5
total 7080
7081
Video Count : 13 MVI_9945.MOV
AUG : 0
total 7080
7081
AUG : 1
total 7080
7081
AUG : 2
total 7080
7081
AUG : 3
total 7080
7081
AUG : 4
total 7080
7081
AUG : 5
total 7080
7081
Video Count : 14 MVI_9947.MOV
AUG : 0
total 7080
7081
AUG : 1
total 7080
7081
AUG : 2
total 7080
7081
AUG : 3
total 7080
7081
AUG : 4
total 7080
7081
AUG : 5
total 7080
7081
Video Count : 15 MVI_0083.MOV
AUG : 0
total 7080
7081
AUG : 1
total 7080
7081
AUG : 2
total 7080
7081
AUG : 3
total 7080
7081
AUG : 4
total 7080
7081
AUG : 5
total 7080
7081
Video Count : 16 MVI_9907.MOV
AUG : 0
total 6254
7081
AUG : 1
total 6254
7081
AUG : 2
total 6254
7081
AUG : 3
total 6254
7081
AUG : 4
total 6254
7081
AUG : 5
total 6254
7081
Video Count : 17 MVI_0024.MOV
AUG : 0
total 7080
7081
AUG : 1
total 7080
7081
AUG : 2
total 7080
7081
AUG : 3
total 7080
7081
AUG : 4
total 7080
7081
AUG : 5
total 7080
7081
Video Count : 18 MVI_0084.MOV
AUG : 0
total 7080
7081
AUG : 1
total 7080
7081
AUG : 2
total 7080
7081
AUG : 3
total 7080
7081
AUG : 4
total 7080
7081
AUG : 5
total 7080
7081
Video Count : 19 MVI_0082.MOV
AUG : 0
total 7080
7081
AUG : 1
total 7080
7081
AUG : 2
total 7080
7081
AUG : 3
total 7080
7081
AUG : 4
total 7080
7081
AUG : 5
total 7080
7081
Video Count : 20 MVI_9948.MOV
AUG : 0
total 7080
7081
AUG : 1
total 7080
7081
AUG : 2
total 7080
7081
AUG : 3
total 7080
7081
AUG : 4
total 7080
7081
AUG : 5
total 7080
7081
Video Count : 21 MVI_0021.MOV
AUG : 0
total 7080
7081
AUG : 1
total 7080
7081
AUG : 2
total 7080
7081
AUG : 3
total 7080
7081
AUG : 4
total 7080
7081
AUG : 5
total 7080
7081
Ges: 12 97. dry
['MVI_9360.MOV', 'MVI_9521.MOV', 'MVI_5326.MOV', 'MVI_5250.MOV', 'MVI_9439.MOV', 'MVI_5328.MOV', 'MVI_9441.MOV', 'MVI_9440.MOV', 'MVI_9359.MOV', 'MVI_5168.MOV', 'MVI_9523.MOV', 'MVI_5167.MOV', 'MVI_9361.MOV', 'MVI_9279.MOV', 'MVI_5327.MOV', 'MVI_5248.MOV', 'MVI_9277.MOV', 'MVI_9278.MOV', 'MVI_5169.MOV', 'MVI_5249.MOV', 'MVI_9522.MOV']
Video Count : 1 MVI_9360.MOV
AUG : 0
total 6254
7081
AUG : 1
total 6254
7081
AUG : 2
total 6254
7081
AUG : 3
total 6254
7081
AUG : 4
total 6254
7081
AUG : 5
total 6254
7081
Video Count : 2 MVI_9521.MOV
AUG : 0
total 7080
7081
AUG : 1
total 7080
7081
AUG : 2
total 7080
7081
AUG : 3
total 7080
7081
AUG : 4
total 7080
7081
AUG : 5
total 7080
7081
Video Count : 3 MVI_5326.MOV
AUG : 0
total 7080
7081
AUG : 1
total 7080
7081
AUG : 2
total 7080
7081
AUG : 3
total 7080
7081
AUG : 4
total 7080
7081
AUG : 5
total 7080
7081
Video Count : 4 MVI_5250.MOV
AUG : 0
total 7080
7081
AUG : 1
total 7080
7081
AUG : 2
total 7080
7081
AUG : 3
total 7080
7081
AUG : 4
total 7080
7081
AUG : 5
total 7080
7081
Video Count : 5 MVI_9439.MOV
AUG : 0
total 7080
7081
AUG : 1
total 7080
7081
AUG : 2
total 7080
7081
AUG : 3
total 7080
7081
AUG : 4
total 7080
7081
AUG : 5
total 7080
7081
Video Count : 6 MVI_5328.MOV
AUG : 0
total 6490
7081
AUG : 1
total 6490
7081
AUG : 2
total 6490
7081
AUG : 3
total 6490
7081
AUG : 4
total 6490
7081
AUG : 5
total 6490
7081
Video Count : 7 MVI_9441.MOV
AUG : 0
total 6726
7081
AUG : 1
total 6726
7081
AUG : 2
total 6726
7081
AUG : 3
total 6726
7081
AUG : 4
total 6726
7081
AUG : 5
total 6726
7081
Video Count : 8 MVI_9440.MOV
AUG : 0
total 6844
7081
AUG : 1
total 6844
7081
AUG : 2
total 6844
7081
AUG : 3
total 6844
7081
AUG : 4
total 6844
7081
AUG : 5
total 6844
7081
Video Count : 9 MVI_9359.MOV
AUG : 0
total 6490
7081
AUG : 1
total 6490
7081
AUG : 2
total 6490
7081
AUG : 3
total 6490
7081
AUG : 4
total 6490
7081
AUG : 5
total 6490
7081
Video Count : 10 MVI_5168.MOV
AUG : 0
total 7080
7081
AUG : 1
total 7080
7081
AUG : 2
total 7080
7081
AUG : 3
total 7080
7081
AUG : 4
total 7080
7081
AUG : 5
total 7080
7081
Video Count : 11 MVI_9523.MOV
AUG : 0
total 7080
7081
AUG : 1
total 7080
7081
AUG : 2
total 7080
7081
AUG : 3
total 7080
7081
AUG : 4
total 7080
7081
AUG : 5
total 7080
7081
Video Count : 12 MVI_5167.MOV
AUG : 0
total 7080
7081
AUG : 1
total 7080
7081
AUG : 2
total 7080
7081
AUG : 3
total 7080
7081
AUG : 4
total 7080
7081
AUG : 5
total 7080
7081
Video Count : 13 MVI_9361.MOV
AUG : 0
total 6254
7081
AUG : 1
total 6254
7081
AUG : 2
total 6254
7081
AUG : 3
total 6254
7081
AUG : 4
total 6254
7081
AUG : 5
total 6254
7081
Video Count : 14 MVI_9279.MOV
AUG : 0
total 6608
7081
AUG : 1
total 6608
7081
AUG : 2
total 6608
7081
AUG : 3
total 6608
7081
AUG : 4
total 6608
7081
AUG : 5
total 6608
7081
Video Count : 15 MVI_5327.MOV
AUG : 0
total 6844
7081
AUG : 1
total 6844
7081
AUG : 2
total 6844
7081
AUG : 3
total 6844
7081
AUG : 4
total 6844
7081
AUG : 5
total 6844
7081
Video Count : 16 MVI_5248.MOV
AUG : 0
total 6844
7081
AUG : 1
total 6844
7081
AUG : 2
total 6844
7081
AUG : 3
total 6844
7081
AUG : 4
total 6844
7081
AUG : 5
total 6844
7081
Video Count : 17 MVI_9277.MOV
AUG : 0
total 6726
7081
AUG : 1
total 6726
7081
AUG : 2
total 6726
7081
AUG : 3
total 6726
7081
AUG : 4
total 6726
7081
AUG : 5
total 6726
7081
Video Count : 18 MVI_9278.MOV
AUG : 0
total 7080
7081
AUG : 1
total 7080
7081
AUG : 2
total 7080
7081
AUG : 3
total 7080
7081
AUG : 4
total 7080
7081
AUG : 5
total 7080
7081
Video Count : 19 MVI_5169.MOV
AUG : 0
total 7080
7081
AUG : 1
total 7080
7081
AUG : 2
total 7080
7081
AUG : 3
total 7080
7081
AUG : 4
total 7080
7081
AUG : 5
total 7080
7081
Video Count : 20 MVI_5249.MOV
AUG : 0
total 7080
7081
AUG : 1
total 7080
7081
AUG : 2
total 7080
7081
AUG : 3
total 7080
7081
AUG : 4
total 7080
7081
AUG : 5
total 7080
7081
Video Count : 21 MVI_9522.MOV
AUG : 0
total 7080
7081
AUG : 1
total 7080
7081
AUG : 2
total 7080
7081
AUG : 3
total 7080
7081
AUG : 4
total 7080
7081
AUG : 5
total 7080
7081
Ges: 13 28. Store or Shop
['MVI_3309.MOV', 'MVI_3472.MOV', 'MVI_3633.MOV', 'MVI_3632.MOV', 'MVI_3384.MOV', 'MVI_3554.MOV', 'MVI_3310.MOV', 'MVI_3473.MOV', 'MVI_3555.MOV', 'MVI_3634.MOV', 'MVI_3637.MOV', 'MVI_3474.MOV', 'MVI_3552.MOV', 'MVI_3308.MOV', 'MVI_3307.MOV', 'MVI_3553.MOV', 'MVI_3475.MOV', 'MVI_3386.MOV', 'MVI_3387.MOV', 'MVI_3635.MOV', 'MVI_3385.MOV', 'MVI_3636.MOV']
Video Count : 1 MVI_3309.MOV
AUG : 0
total 7080
7081
AUG : 1
total 7080
7081
AUG : 2
total 7080
7081
AUG : 3
total 7080
7081
AUG : 4
total 7080
7081
AUG : 5
total 7080
7081
Video Count : 2 MVI_3472.MOV
AUG : 0
total 5900
7081
AUG : 1
total 5900
7081
AUG : 2
total 5900
7081
AUG : 3
total 5900
7081
AUG : 4
total 5900
7081
AUG : 5
total 5900
7081
Video Count : 3 MVI_3633.MOV
AUG : 0
total 5782
7081
AUG : 1
total 5782
7081
AUG : 2
total 5782
7081
AUG : 3
total 5782
7081
AUG : 4
total 5782
7081
AUG : 5
total 5782
7081
Video Count : 4 MVI_3632.MOV
AUG : 0
total 6372
7081
AUG : 1
total 6372
7081
AUG : 2
total 6372
7081
AUG : 3
total 6372
7081
AUG : 4
total 6372
7081
AUG : 5
total 6372
7081
Video Count : 5 MVI_3384.MOV
AUG : 0
total 7080
7081
AUG : 1
total 7080
7081
AUG : 2
total 7080
7081
AUG : 3
total 7080
7081
AUG : 4
total 7080
7081
AUG : 5
total 7080
7081
Video Count : 6 MVI_3554.MOV
AUG : 0
total 6608
7081
AUG : 1
total 6608
7081
AUG : 2
total 6608
7081
AUG : 3
total 6608
7081
AUG : 4
total 6608
7081
AUG : 5
total 6608
7081
Video Count : 7 MVI_3310.MOV
AUG : 0
total 6608
7081
AUG : 1
total 6608
7081
AUG : 2
total 6608
7081
AUG : 3
total 6608
7081
AUG : 4
total 6608
7081
AUG : 5
total 6608
7081
Video Count : 8 MVI_3473.MOV
AUG : 0
total 5074
7081
AUG : 1
total 5074
7081
AUG : 2
total 5074
7081
AUG : 3
total 5074
7081
AUG : 4
total 5074
7081
AUG : 5
total 5074
7081
Video Count : 9 MVI_3555.MOV
AUG : 0
total 6136
7081
AUG : 1
total 6136
7081
AUG : 2
total 6136
7081
AUG : 3
total 6136
7081
AUG : 4
total 6136
7081
AUG : 5
total 6136
7081
Video Count : 10 MVI_3634.MOV
AUG : 0
total 5900
7081
AUG : 1
total 5900
7081
AUG : 2
total 5900
7081
AUG : 3
total 5900
7081
AUG : 4
total 5900
7081
AUG : 5
total 5900
7081
Video Count : 11 MVI_3637.MOV
AUG : 0
total 5664
7081
AUG : 1
total 5664
7081
AUG : 2
total 5664
7081
AUG : 3
total 5664
7081
AUG : 4
total 5664
7081
AUG : 5
total 5664
7081
Video Count : 12 MVI_3474.MOV
AUG : 0
total 5310
7081
AUG : 1
total 5310
7081
AUG : 2
total 5310
7081
AUG : 3
total 5310
7081
AUG : 4
total 5310
7081
AUG : 5
total 5310
7081
Video Count : 13 MVI_3552.MOV
AUG : 0
total 5428
7081
AUG : 1
total 5428
7081
AUG : 2
total 5428
7081
AUG : 3
total 5428
7081
AUG : 4
total 5428
7081
AUG : 5
total 5428
7081
Video Count : 14 MVI_3308.MOV
AUG : 0
total 7080
7081
AUG : 1
total 7080
7081
AUG : 2
total 7080
7081
AUG : 3
total 7080
7081
AUG : 4
total 7080
7081
AUG : 5
total 7080
7081
Video Count : 15 MVI_3307.MOV
AUG : 0
total 6962
7081
AUG : 1
total 6962
7081
AUG : 2
total 6962
7081
AUG : 3
total 6962
7081
AUG : 4
total 6962
7081
AUG : 5
total 6962
7081
Video Count : 16 MVI_3553.MOV
AUG : 0
total 5782
7081
AUG : 1
total 5782
7081
AUG : 2
total 5782
7081
AUG : 3
total 5782
7081
AUG : 4
total 5782
7081
AUG : 5
total 5782
7081
Video Count : 17 MVI_3475.MOV
AUG : 0
total 5428
7081
AUG : 1
total 5428
7081
AUG : 2
total 5428
7081
AUG : 3
total 5428
7081
AUG : 4
total 5428
7081
AUG : 5
total 5428
7081
Video Count : 18 MVI_3386.MOV
AUG : 0
total 6962
7081
AUG : 1
total 6962
7081
AUG : 2
total 6962
7081
AUG : 3
total 6962
7081
AUG : 4
total 6962
7081
AUG : 5
total 6962
7081
Video Count : 19 MVI_3387.MOV
AUG : 0
total 6136
7081
AUG : 1
total 6136
7081
AUG : 2
total 6136
7081
AUG : 3
total 6136
7081
AUG : 4
total 6136
7081
AUG : 5
total 6136
7081
Video Count : 20 MVI_3635.MOV
AUG : 0
total 6136
7081
AUG : 1
total 6136
7081
AUG : 2
total 6136
7081
AUG : 3
total 6136
7081
AUG : 4
total 6136
7081
AUG : 5
total 6136
7081
Video Count : 21 MVI_3385.MOV
AUG : 0
total 7080
7081
AUG : 1
total 7080
7081
AUG : 2
total 7080
7081
AUG : 3
total 7080
7081
AUG : 4
total 7080
7081
AUG : 5
total 7080
7081
Video Count : 22 MVI_3636.MOV
AUG : 0
total 5428
7081
AUG : 1
total 5428
7081
AUG : 2
total 5428
7081
AUG : 3
total 5428
7081
AUG : 4
total 5428
7081
AUG : 5
total 5428
7081
Ges: 14 87. hot
['MVI_5216.MOV', 'MVI_5218.MOV', 'MVI_5217.MOV', 'MVI_5297.MOV', 'MVI_9247.MOV', 'MVI_9409.MOV', 'MVI_9249.MOV', 'MVI_9487.MOV', 'MVI_9410.MOV', 'MVI_5137.MOV', 'MVI_9330.MOV', 'MVI_9329.MOV', 'MVI_9248.MOV', 'MVI_9328.MOV', 'MVI_5295.MOV', 'MVI_5296.MOV', 'MVI_5138.MOV', 'MVI_9488.MOV', 'MVI_9489.MOV', 'MVI_9408.MOV', 'MVI_5136.MOV']
Video Count : 1 MVI_5216.MOV
AUG : 0
total 6726
7081
AUG : 1
total 6726
7081
AUG : 2
total 6726
7081
AUG : 3
total 6726
7081
AUG : 4
total 6726
7081
AUG : 5
total 6726
7081
Video Count : 2 MVI_5218.MOV
AUG : 0
total 7080
7081
AUG : 1
total 7080
7081
AUG : 2
total 7080
7081
AUG : 3
total 7080
7081
AUG : 4
total 7080
7081
AUG : 5
total 7080
7081
Video Count : 3 MVI_5217.MOV
AUG : 0
total 7080
7081
AUG : 1
total 7080
7081
AUG : 2
total 7080
7081
AUG : 3
total 7080
7081
AUG : 4
total 7080
7081
AUG : 5
total 7080
7081
Video Count : 4 MVI_5297.MOV
AUG : 0
total 6490
7081
AUG : 1
total 6490
7081
AUG : 2
total 6490
7081
AUG : 3
total 6490
7081
AUG : 4
total 6490
7081
AUG : 5
total 6490
7081
Video Count : 5 MVI_9247.MOV
AUG : 0
total 6490
7081
AUG : 1
total 6490
7081
AUG : 2
total 6490
7081
AUG : 3
total 6490
7081
AUG : 4
total 6490
7081
AUG : 5
total 6490
7081
Video Count : 6 MVI_9409.MOV
AUG : 0
total 7080
7081
AUG : 1
total 7080
7081
AUG : 2
total 7080
7081
AUG : 3
total 7080
7081
AUG : 4
total 7080
7081
AUG : 5
total 7080
7081
Video Count : 7 MVI_9249.MOV
AUG : 0
total 5664
7081
AUG : 1
total 5664
7081
AUG : 2
total 5664
7081
AUG : 3
total 5664
7081
AUG : 4
total 5664
7081
AUG : 5
total 5664
7081
Video Count : 8 MVI_9487.MOV
AUG : 0
total 7080
7081
AUG : 1
total 7080
7081
AUG : 2
total 7080
7081
AUG : 3
total 7080
7081
AUG : 4
total 7080
7081
AUG : 5
total 7080
7081
Video Count : 9 MVI_9410.MOV
AUG : 0
total 6608
7081
AUG : 1
total 6608
7081
AUG : 2
total 6608
7081
AUG : 3
total 6608
7081
AUG : 4
total 6608
7081
AUG : 5
total 6608
7081
Video Count : 10 MVI_5137.MOV
AUG : 0
total 6608
7081
AUG : 1
total 6608
7081
AUG : 2
total 6608
7081
AUG : 3
total 6608
7081
AUG : 4
total 6608
7081
AUG : 5
total 6608
7081
Video Count : 11 MVI_9330.MOV
AUG : 0
total 5900
7081
AUG : 1
total 5900
7081
AUG : 2
total 5900
7081
AUG : 3
total 5900
7081
AUG : 4
total 5900
7081
AUG : 5
total 5900
7081
Video Count : 12 MVI_9329.MOV
AUG : 0
total 6254
7081
AUG : 1
total 6254
7081
AUG : 2
total 6254
7081
AUG : 3
total 6254
7081
AUG : 4
total 6254
7081
AUG : 5
total 6254
7081
Video Count : 13 MVI_9248.MOV
AUG : 0
total 5664
7081
AUG : 1
total 5664
7081
AUG : 2
total 5664
7081
AUG : 3
total 5664
7081
AUG : 4
total 5664
7081
AUG : 5
total 5664
7081
Video Count : 14 MVI_9328.MOV
AUG : 0
total 6136
7081
AUG : 1
total 6136
7081
AUG : 2
total 6136
7081
AUG : 3
total 6136
7081
AUG : 4
total 6136
7081
AUG : 5
total 6136
7081
Video Count : 15 MVI_5295.MOV
AUG : 0
total 6608
7081
AUG : 1
total 6608
7081
AUG : 2
total 6608
7081
AUG : 3
total 6608
7081
AUG : 4
total 6608
7081
AUG : 5
total 6608
7081
Video Count : 16 MVI_5296.MOV
AUG : 0
total 6608
7081
AUG : 1
total 6608
7081
AUG : 2
total 6608
7081
AUG : 3
total 6608
7081
AUG : 4
total 6608
7081
AUG : 5
total 6608
7081
Video Count : 17 MVI_5138.MOV
AUG : 0
total 5782
7081
AUG : 1
total 5782
7081
AUG : 2
total 5782
7081
AUG : 3
total 5782
7081
AUG : 4
total 5782
7081
AUG : 5
total 5782
7081
Video Count : 18 MVI_9488.MOV
AUG : 0
total 7080
7081
AUG : 1
total 7080
7081
AUG : 2
total 7080
7081
AUG : 3
total 7080
7081
AUG : 4
total 7080
7081
AUG : 5
total 7080
7081
Video Count : 19 MVI_9489.MOV
AUG : 0
total 7080
7081
AUG : 1
total 7080
7081
AUG : 2
total 7080
7081
AUG : 3
total 7080
7081
AUG : 4
total 7080
7081
AUG : 5
total 7080
7081
Video Count : 20 MVI_9408.MOV
AUG : 0
total 7080
7081
AUG : 1
total 7080
7081
AUG : 2
total 7080
7081
AUG : 3
total 7080
7081
AUG : 4
total 7080
7081
AUG : 5
total 7080
7081
Video Count : 21 MVI_5136.MOV
AUG : 0
total 7080
7081
AUG : 1
total 7080
7081
AUG : 2
total 7080
7081
AUG : 3
total 7080
7081
AUG : 4
total 7080
7081
AUG : 5
total 7080
7081
Ges: 15 94. good
['MVI_9350.MOV', 'MVI_9351.MOV', 'MVI_5240.MOV', 'MVI_9349.MOV', 'MVI_9431.MOV', 'MVI_5239.MOV', 'MVI_9268.MOV', 'MVI_9512.MOV', 'MVI_5158.MOV', 'MVI_5238.MOV', 'MVI_9270.MOV', 'MVI_5159.MOV', 'MVI_9269.MOV', 'MVI_9432.MOV', 'MVI_9510.MOV', 'MVI_5317.MOV', 'MVI_9430.MOV', 'MVI_5318.MOV', 'MVI_5160.MOV', 'MVI_9511.MOV', 'MVI_5316.MOV']
Video Count : 1 MVI_9350.MOV
AUG : 0
total 5310
7081
AUG : 1
total 5310
7081
AUG : 2
total 5310
7081
AUG : 3
total 5310
7081
AUG : 4
total 5310
7081
AUG : 5
total 5310
7081
Video Count : 2 MVI_9351.MOV
AUG : 0
total 5900
7081
AUG : 1
total 5900
7081
AUG : 2
total 5900
7081
AUG : 3
total 5900
7081
AUG : 4
total 5900
7081
AUG : 5
total 5900
7081
Video Count : 3 MVI_5240.MOV
AUG : 0
total 7080
7081
AUG : 1
total 7080
7081
AUG : 2
total 7080
7081
AUG : 3
total 7080
7081
AUG : 4
total 7080
7081
AUG : 5
total 7080
7081
Video Count : 4 MVI_9349.MOV
AUG : 0
total 4838
7081
AUG : 1
total 4838
7081
AUG : 2
total 4838
7081
AUG : 3
total 4838
7081
AUG : 4
total 4838
7081
AUG : 5
total 4838
7081
Video Count : 5 MVI_9431.MOV
AUG : 0
total 6962
7081
AUG : 1
total 6962
7081
AUG : 2
total 6962
7081
AUG : 3
total 6962
7081
AUG : 4
total 6962
7081
AUG : 5
total 6962
7081
Video Count : 6 MVI_5239.MOV
AUG : 0
total 6608
7081
AUG : 1
total 6608
7081
AUG : 2
total 6608
7081
AUG : 3
total 6608
7081
AUG : 4
total 6608
7081
AUG : 5
total 6608
7081
Video Count : 7 MVI_9268.MOV
AUG : 0
total 5428
7081
AUG : 1
total 5428
7081
AUG : 2
total 5428
7081
AUG : 3
total 5428
7081
AUG : 4
total 5428
7081
AUG : 5
total 5428
7081
Video Count : 8 MVI_9512.MOV
AUG : 0
total 5900
7081
AUG : 1
total 5900
7081
AUG : 2
total 5900
7081
AUG : 3
total 5900
7081
AUG : 4
total 5900
7081
AUG : 5
total 5900
7081
Video Count : 9 MVI_5158.MOV
AUG : 0
total 7080
7081
AUG : 1
total 7080
7081
AUG : 2
total 7080
7081
AUG : 3
total 7080
7081
AUG : 4
total 7080
7081
AUG : 5
total 7080
7081
Video Count : 10 MVI_5238.MOV
AUG : 0
total 5782
7081
AUG : 1
total 5782
7081
AUG : 2
total 5782
7081
AUG : 3
total 5782
7081
AUG : 4
total 5782
7081
AUG : 5
total 5782
7081
Video Count : 11 MVI_9270.MOV
AUG : 0
total 5428
7081
AUG : 1
total 5428
7081
AUG : 2
total 5428
7081
AUG : 3
total 5428
7081
AUG : 4
total 5428
7081
AUG : 5
total 5428
7081
Video Count : 12 MVI_5159.MOV
AUG : 0
total 7080
7081
AUG : 1
total 7080
7081
AUG : 2
total 7080
7081
AUG : 3
total 7080
7081
AUG : 4
total 7080
7081
AUG : 5
total 7080
7081
Video Count : 13 MVI_9269.MOV
AUG : 0
total 5664
7081
AUG : 1
total 5664
7081
AUG : 2
total 5664
7081
AUG : 3
total 5664
7081
AUG : 4
total 5664
7081
AUG : 5
total 5664
7081
Video Count : 14 MVI_9432.MOV
AUG : 0
total 6962
7081
AUG : 1
total 6962
7081
AUG : 2
total 6962
7081
AUG : 3
total 6962
7081
AUG : 4
total 6962
7081
AUG : 5
total 6962
7081
Video Count : 15 MVI_9510.MOV
AUG : 0
total 7080
7081
AUG : 1
total 7080
7081
AUG : 2
total 7080
7081
AUG : 3
total 7080
7081
AUG : 4
total 7080
7081
AUG : 5
total 7080
7081
Video Count : 16 MVI_5317.MOV
AUG : 0
total 5782
7081
AUG : 1
total 5782
7081
AUG : 2
total 5782
7081
AUG : 3
total 5782
7081
AUG : 4
total 5782
7081
AUG : 5
total 5782
7081
Video Count : 17 MVI_9430.MOV
AUG : 0
total 7080
7081
AUG : 1
total 7080
7081
AUG : 2
total 7080
7081
AUG : 3
total 7080
7081
AUG : 4
total 7080
7081
AUG : 5
total 7080
7081
Video Count : 18 MVI_5318.MOV
AUG : 0
total 5192
7081
AUG : 1
total 5192
7081
AUG : 2
total 5192
7081
AUG : 3
total 5192
7081
AUG : 4
total 5192
7081
AUG : 5
total 5192
7081
Video Count : 19 MVI_5160.MOV
AUG : 0
total 7080
7081
AUG : 1
total 7080
7081
AUG : 2
total 7080
7081
AUG : 3
total 7080
7081
AUG : 4
total 7080
7081
AUG : 5
total 7080
7081
Video Count : 20 MVI_9511.MOV
AUG : 0
total 6608
7081
AUG : 1
total 6608
7081
AUG : 2
total 6608
7081
AUG : 3
total 6608
7081
AUG : 4
total 6608
7081
AUG : 5
total 6608
7081
Video Count : 21 MVI_5316.MOV
AUG : 0
total 5428
7081
AUG : 1
total 5428
7081
AUG : 2
total 5428
7081
AUG : 3
total 5428
7081
AUG : 4
total 5428
7081
AUG : 5
total 5428
7081
Ges: 16 83. big large
['MVI_5124.MOV', 'MVI_5284.MOV', 'MVI_5204.MOV', 'MVI_5205.MOV', 'MVI_9477.MOV', 'MVI_5203.MOV', 'MVI_5123.MOV', 'MVI_9317.MOV', 'MVI_9318.MOV', 'MVI_9476.MOV', 'MVI_9316.MOV', 'MVI_9234.MOV', 'MVI_5285.MOV', 'MVI_5283.MOV', 'MVI_9394.MOV', 'MVI_5125.MOV', 'MVI_9233.MOV', 'MVI_9475.MOV', 'MVI_9395.MOV', 'MVI_9396.MOV', 'MVI_9235.MOV']
Video Count : 1 MVI_5124.MOV
AUG : 0
total 7080
7081
AUG : 1
total 7080
7081
AUG : 2
total 7080
7081
AUG : 3
total 7080
7081
AUG : 4
total 7080
7081
AUG : 5
total 7080
7081
Video Count : 2 MVI_5284.MOV
AUG : 0
total 6490
7081
AUG : 1
total 6490
7081
AUG : 2
total 6490
7081
AUG : 3
total 6490
7081
AUG : 4
total 6490
7081
AUG : 5
total 6490
7081
Video Count : 3 MVI_5204.MOV
AUG : 0
total 7080
7081
AUG : 1
total 7080
7081
AUG : 2
total 7080
7081
AUG : 3
total 7080
7081
AUG : 4
total 7080
7081
AUG : 5
total 7080
7081
Video Count : 4 MVI_5205.MOV
AUG : 0
total 7080
7081
AUG : 1
total 7080
7081
AUG : 2
total 7080
7081
AUG : 3
total 7080
7081
AUG : 4
total 7080
7081
AUG : 5
total 7080
7081
Video Count : 5 MVI_9477.MOV
AUG : 0
total 6608
7081
AUG : 1
total 6608
7081
AUG : 2
total 6608
7081
AUG : 3
total 6608
7081
AUG : 4
total 6608
7081
AUG : 5
total 6608
7081
Video Count : 6 MVI_5203.MOV
AUG : 0
total 7080
7081
AUG : 1
total 7080
7081
AUG : 2
total 7080
7081
AUG : 3
total 7080
7081
AUG : 4
total 7080
7081
AUG : 5
total 7080
7081
Video Count : 7 MVI_5123.MOV
AUG : 0
total 6372
7081
AUG : 1
total 6372
7081
AUG : 2
total 6372
7081
AUG : 3
total 6372
7081
AUG : 4
total 6372
7081
AUG : 5
total 6372
7081
Video Count : 8 MVI_9317.MOV
AUG : 0
total 5664
7081
AUG : 1
total 5664
7081
AUG : 2
total 5664
7081
AUG : 3
total 5664
7081
AUG : 4
total 5664
7081
AUG : 5
total 5664
7081
Video Count : 9 MVI_9318.MOV
AUG : 0
total 5782
7081
AUG : 1
total 5782
7081
AUG : 2
total 5782
7081
AUG : 3
total 5782
7081
AUG : 4
total 5782
7081
AUG : 5
total 5782
7081
Video Count : 10 MVI_9476.MOV
AUG : 0
total 6372
7081
AUG : 1
total 6372
7081
AUG : 2
total 6372
7081
AUG : 3
total 6372
7081
AUG : 4
total 6372
7081
AUG : 5
total 6372
7081
Video Count : 11 MVI_9316.MOV
AUG : 0
total 5192
7081
AUG : 1
total 5192
7081
AUG : 2
total 5192
7081
AUG : 3
total 5192
7081
AUG : 4
total 5192
7081
AUG : 5
total 5192
7081
Video Count : 12 MVI_9234.MOV
AUG : 0
total 5546
7081
AUG : 1
total 5546
7081
AUG : 2
total 5546
7081
AUG : 3
total 5546
7081
AUG : 4
total 5546
7081
AUG : 5
total 5546
7081
Video Count : 13 MVI_5285.MOV
AUG : 0
total 6018
7081
AUG : 1
total 6018
7081
AUG : 2
total 6018
7081
AUG : 3
total 6018
7081
AUG : 4
total 6018
7081
AUG : 5
total 6018
7081
Video Count : 14 MVI_5283.MOV
AUG : 0
total 6726
7081
AUG : 1
total 6726
7081
AUG : 2
total 6726
7081
AUG : 3
total 6726
7081
AUG : 4
total 6726
7081
AUG : 5
total 6726
7081
Video Count : 15 MVI_9394.MOV
AUG : 0
total 6962
7081
AUG : 1
total 6962
7081
AUG : 2
total 6962
7081
AUG : 3
total 6962
7081
AUG : 4
total 6962
7081
AUG : 5
total 6962
7081
Video Count : 16 MVI_5125.MOV
AUG : 0
total 7080
7081
AUG : 1
total 7080
7081
AUG : 2
total 7080
7081
AUG : 3
total 7080
7081
AUG : 4
total 7080
7081
AUG : 5
total 7080
7081
Video Count : 17 MVI_9233.MOV
AUG : 0
total 5664
7081
AUG : 1
total 5664
7081
AUG : 2
total 5664
7081
AUG : 3
total 5664
7081
AUG : 4
total 5664
7081
AUG : 5
total 5664
7081
Video Count : 18 MVI_9475.MOV
AUG : 0
total 6372
7081
AUG : 1
total 6372
7081
AUG : 2
total 6372
7081
AUG : 3
total 6372
7081
AUG : 4
total 6372
7081
AUG : 5
total 6372
7081
Video Count : 19 MVI_9395.MOV
AUG : 0
total 6726
7081
AUG : 1
total 6726
7081
AUG : 2
total 6726
7081
AUG : 3
total 6726
7081
AUG : 4
total 6726
7081
AUG : 5
total 6726
7081
Video Count : 20 MVI_9396.MOV
AUG : 0
total 6608
7081
AUG : 1
total 6608
7081
AUG : 2
total 6608
7081
AUG : 3
total 6608
7081
AUG : 4
total 6608
7081
AUG : 5
total 6608
7081
Video Count : 21 MVI_9235.MOV
AUG : 0
total 5428
7081
AUG : 1
total 5428
7081
AUG : 2
total 5428
7081
AUG : 3
total 5428
7081
AUG : 4
total 5428
7081
AUG : 5
total 5428
7081
Ges: 17 44. it
['MVI_9937.MOV', 'MVI_0077.MOV', 'MVI_9969.MOV', 'MVI_0025.MOV', 'MVI_9938.MOV', 'MVI_9971.MOV', 'MVI_0076.MOV', 'MVI_9897.MOV', 'MVI_0026.MOV', 'MVI_9899.MOV', 'MVI_9936.MOV', 'MVI_0013.MOV', 'MVI_9898.MOV', 'MVI_0015.MOV', 'MVI_0078.MOV', 'MVI_0024.MOV', 'MVI_9939.MOV', 'MVI_0016.MOV', 'MVI_9970.MOV', 'MVI_0014.MOV', 'MVI_9900.MOV']
Video Count : 1 MVI_9937.MOV
AUG : 0
total 7080
7081
AUG : 1
total 7080
7081
AUG : 2
total 7080
7081
AUG : 3
total 7080
7081
AUG : 4
total 7080
7081
AUG : 5
total 7080
7081
Video Count : 2 MVI_0077.MOV
AUG : 0
total 7080
7081
AUG : 1
total 7080
7081
AUG : 2
total 7080
7081
AUG : 3
total 7080
7081
AUG : 4
total 7080
7081
AUG : 5
total 7080
7081
Video Count : 3 MVI_9969.MOV
AUG : 0
total 5192
7081
AUG : 1
total 5192
7081
AUG : 2
total 5192
7081
AUG : 3
total 5192
7081
AUG : 4
total 5192
7081
AUG : 5
total 5192
7081
Video Count : 4 MVI_0025.MOV
AUG : 0
total 4720
7081
AUG : 1
total 4720
7081
AUG : 2
total 4720
7081
AUG : 3
total 4720
7081
AUG : 4
total 4720
7081
AUG : 5
total 4720
7081
Video Count : 5 MVI_9938.MOV
AUG : 0
total 7080
7081
AUG : 1
total 7080
7081
AUG : 2
total 7080
7081
AUG : 3
total 7080
7081
AUG : 4
total 7080
7081
AUG : 5
total 7080
7081
Video Count : 6 MVI_9971.MOV
AUG : 0
total 5546
7081
AUG : 1
total 5546
7081
AUG : 2
total 5546
7081
AUG : 3
total 5546
7081
AUG : 4
total 5546
7081
AUG : 5
total 5546
7081
Video Count : 7 MVI_0076.MOV
AUG : 0
total 7080
7081
AUG : 1
total 7080
7081
AUG : 2
total 7080
7081
AUG : 3
total 7080
7081
AUG : 4
total 7080
7081
AUG : 5
total 7080
7081
Video Count : 8 MVI_9897.MOV
AUG : 0
total 5192
7081
AUG : 1
total 5192
7081
AUG : 2
total 5192
7081
AUG : 3
total 5192
7081
AUG : 4
total 5192
7081
AUG : 5
total 5192
7081
Video Count : 9 MVI_0026.MOV
AUG : 0
total 5074
7081
AUG : 1
total 5074
7081
AUG : 2
total 5074
7081
AUG : 3
total 5074
7081
AUG : 4
total 5074
7081
AUG : 5
total 5074
7081
Video Count : 10 MVI_9899.MOV
AUG : 0
total 5192
7081
AUG : 1
total 5192
7081
AUG : 2
total 5192
7081
AUG : 3
total 5192
7081
AUG : 4
total 5192
7081
AUG : 5
total 5192
7081
Video Count : 11 MVI_9936.MOV
AUG : 0
total 7080
7081
AUG : 1
total 7080
7081
AUG : 2
total 7080
7081
AUG : 3
total 7080
7081
AUG : 4
total 7080
7081
AUG : 5
total 7080
7081
Video Count : 12 MVI_0013.MOV
AUG : 0
total 7080
7081
AUG : 1
total 7080
7081
AUG : 2
total 7080
7081
AUG : 3
total 7080
7081
AUG : 4
total 7080
7081
AUG : 5
total 7080
7081
Video Count : 13 MVI_9898.MOV
AUG : 0
total 5428
7081
AUG : 1
total 5428
7081
AUG : 2
total 5428
7081
AUG : 3
total 5428
7081
AUG : 4
total 5428
7081
AUG : 5
total 5428
7081
Video Count : 14 MVI_0015.MOV
AUG : 0
total 7080
7081
AUG : 1
total 7080
7081
AUG : 2
total 7080
7081
AUG : 3
total 7080
7081
AUG : 4
total 7080
7081
AUG : 5
total 7080
7081
Video Count : 15 MVI_0078.MOV
AUG : 0
total 6844
7081
AUG : 1
total 6844
7081
AUG : 2
total 6844
7081
AUG : 3
total 6844
7081
AUG : 4
total 6844
7081
AUG : 5
total 6844
7081
Video Count : 16 MVI_0024.MOV
AUG : 0
total 5074
7081
AUG : 1
total 5074
7081
AUG : 2
total 5074
7081
AUG : 3
total 5074
7081
AUG : 4
total 5074
7081
AUG : 5
total 5074
7081
Video Count : 17 MVI_9939.MOV
AUG : 0
total 7080
7081
AUG : 1
total 7080
7081
AUG : 2
total 7080
7081
AUG : 3
total 7080
7081
AUG : 4
total 7080
7081
AUG : 5
total 7080
7081
Video Count : 18 MVI_0016.MOV
AUG : 0
total 7080
7081
AUG : 1
total 7080
7081
AUG : 2
total 7080
7081
AUG : 3
total 7080
7081
AUG : 4
total 7080
7081
AUG : 5
total 7080
7081
Video Count : 19 MVI_9970.MOV
AUG : 0
total 5664
7081
AUG : 1
total 5664
7081
AUG : 2
total 5664
7081
AUG : 3
total 5664
7081
AUG : 4
total 5664
7081
AUG : 5
total 5664
7081
Video Count : 20 MVI_0014.MOV
AUG : 0
total 7080
7081
AUG : 1
total 7080
7081
AUG : 2
total 7080
7081
AUG : 3
total 7080
7081
AUG : 4
total 7080
7081
AUG : 5
total 7080
7081
Video Count : 21 MVI_9900.MOV
AUG : 0
total 5900
7081
AUG : 1
total 5900
7081
AUG : 2
total 5900
7081
AUG : 3
total 5900
7081
AUG : 4
total 5900
7081
AUG : 5
total 5900
7081
Ges: 18 35. Bank
['MVI_3337.MOV', 'MVI_3503.MOV', 'MVI_3584.MOV', 'MVI_3582.MOV', 'MVI_3421.MOV', 'MVI_3662.MOV', 'MVI_3422.MOV', 'MVI_3423.MOV', 'MVI_3419.MOV', 'MVI_3663.MOV', 'MVI_3420.MOV', 'MVI_3338.MOV', 'MVI_3502.MOV', 'MVI_3581.MOV', 'MVI_3335.MOV', 'MVI_3583.MOV', 'MVI_3664.MOV', 'MVI_3500.MOV', 'MVI_3661.MOV', 'MVI_3339.MOV', 'MVI_3501.MOV', 'MVI_3336.MOV']
Video Count : 1 MVI_3337.MOV
AUG : 0
total 7080
7081
AUG : 1
total 7080
7081
AUG : 2
total 7080
7081
AUG : 3
total 7080
7081
AUG : 4
total 7080
7081
AUG : 5
total 7080
7081
Video Count : 2 MVI_3503.MOV
AUG : 0
total 5310
7081
AUG : 1
total 5310
7081
AUG : 2
total 5310
7081
AUG : 3
total 5310
7081
AUG : 4
total 5310
7081
AUG : 5
total 5310
7081
Video Count : 3 MVI_3584.MOV
AUG : 0
total 5900
7081
AUG : 1
total 5900
7081
AUG : 2
total 5900
7081
AUG : 3
total 5900
7081
AUG : 4
total 5900
7081
AUG : 5
total 5900
7081
Video Count : 4 MVI_3582.MOV
AUG : 0
total 6018
7081
AUG : 1
total 6018
7081
AUG : 2
total 6018
7081
AUG : 3
total 6018
7081
AUG : 4
total 6018
7081
AUG : 5
total 6018
7081
Video Count : 5 MVI_3421.MOV
AUG : 0
total 6962
7081
AUG : 1
total 6962
7081
AUG : 2
total 6962
7081
AUG : 3
total 6962
7081
AUG : 4
total 6962
7081
AUG : 5
total 6962
7081
Video Count : 6 MVI_3662.MOV
AUG : 0
total 5074
7081
AUG : 1
total 5074
7081
AUG : 2
total 5074
7081
AUG : 3
total 5074
7081
AUG : 4
total 5074
7081
AUG : 5
total 5074
7081
Video Count : 7 MVI_3422.MOV
AUG : 0
total 6962
7081
AUG : 1
total 6962
7081
AUG : 2
total 6962
7081
AUG : 3
total 6962
7081
AUG : 4
total 6962
7081
AUG : 5
total 6962
7081
Video Count : 8 MVI_3423.MOV
AUG : 0
total 7080
7081
AUG : 1
total 7080
7081
AUG : 2
total 7080
7081
AUG : 3
total 7080
7081
AUG : 4
total 7080
7081
AUG : 5
total 7080
7081
Video Count : 9 MVI_3419.MOV
AUG : 0
total 7080
7081
AUG : 1
total 7080
7081
AUG : 2
total 7080
7081
AUG : 3
total 7080
7081
AUG : 4
total 7080
7081
AUG : 5
total 7080
7081
Video Count : 10 MVI_3663.MOV
AUG : 0
total 5192
7081
AUG : 1
total 5192
7081
AUG : 2
total 5192
7081
AUG : 3
total 5192
7081
AUG : 4
total 5192
7081
AUG : 5
total 5192
7081
Video Count : 11 MVI_3420.MOV
AUG : 0
total 7080
7081
AUG : 1
total 7080
7081
AUG : 2
total 7080
7081
AUG : 3
total 7080
7081
AUG : 4
total 7080
7081
AUG : 5
total 7080
7081
Video Count : 12 MVI_3338.MOV
AUG : 0
total 7080
7081
AUG : 1
total 7080
7081
AUG : 2
total 7080
7081
AUG : 3
total 7080
7081
AUG : 4
total 7080
7081
AUG : 5
total 7080
7081
Video Count : 13 MVI_3502.MOV
AUG : 0
total 5664
7081
AUG : 1
total 5664
7081
AUG : 2
total 5664
7081
AUG : 3
total 5664
7081
AUG : 4
total 5664
7081
AUG : 5
total 5664
7081
Video Count : 14 MVI_3581.MOV
AUG : 0
total 5900
7081
AUG : 1
total 5900
7081
AUG : 2
total 5900
7081
AUG : 3
total 5900
7081
AUG : 4
total 5900
7081
AUG : 5
total 5900
7081
Video Count : 15 MVI_3335.MOV
AUG : 0
total 7080
7081
AUG : 1
total 7080
7081
AUG : 2
total 7080
7081
AUG : 3
total 7080
7081
AUG : 4
total 7080
7081
AUG : 5
total 7080
7081
Video Count : 16 MVI_3583.MOV
AUG : 0
total 5310
7081
AUG : 1
total 5310
7081
AUG : 2
total 5310
7081
AUG : 3
total 5310
7081
AUG : 4
total 5310
7081
AUG : 5
total 5310
7081
Video Count : 17 MVI_3664.MOV
AUG : 0
total 5546
7081
AUG : 1
total 5546
7081
AUG : 2
total 5546
7081
AUG : 3
total 5546
7081
AUG : 4
total 5546
7081
AUG : 5
total 5546
7081
Video Count : 18 MVI_3500.MOV
AUG : 0
total 5192
7081
AUG : 1
total 5192
7081
AUG : 2
total 5192
7081
AUG : 3
total 5192
7081
AUG : 4
total 5192
7081
AUG : 5
total 5192
7081
Video Count : 19 MVI_3661.MOV
AUG : 0
total 5192
7081
AUG : 1
total 5192
7081
AUG : 2
total 5192
7081
AUG : 3
total 5192
7081
AUG : 4
total 5192
7081
AUG : 5
total 5192
7081
Video Count : 20 MVI_3339.MOV
AUG : 0
total 7080
7081
AUG : 1
total 7080
7081
AUG : 2
total 7080
7081
AUG : 3
total 7080
7081
AUG : 4
total 7080
7081
AUG : 5
total 7080
7081
Video Count : 21 MVI_3501.MOV
AUG : 0
total 4838
7081
AUG : 1
total 4838
7081
AUG : 2
total 4838
7081
AUG : 3
total 4838
7081
AUG : 4
total 4838
7081
AUG : 5
total 4838
7081
Video Count : 22 MVI_3336.MOV
AUG : 0
total 7080
7081
AUG : 1
total 7080
7081
AUG : 2
total 7080
7081
AUG : 3
total 7080
7081
AUG : 4
total 7080
7081
AUG : 5
total 7080
7081
Ges: 19 79. short
['MVI_9302.MOV', 'MVI_9221.MOV', 'MVI_5191.MOV', 'MVI_9462.MOV', 'MVI_5189.MOV', 'MVI_5269.MOV', 'MVI_5270.MOV', 'MVI_5190.MOV', 'MVI_9461.MOV', 'MVI_9222.MOV', 'MVI_9303.MOV', 'MVI_9220.MOV', 'MVI_9463.MOV', 'MVI_9380.MOV', 'MVI_9382.MOV', 'MVI_9381.MOV', 'MVI_9301.MOV', 'MVI_5271.MOV', 'MVI_5111.MOV', 'MVI_5110.MOV', 'MVI_5112.MOV']
Video Count : 1 MVI_9302.MOV
AUG : 0
total 5192
7081
AUG : 1
total 5192
7081
AUG : 2
total 5192
7081
AUG : 3
total 5192
7081
AUG : 4
total 5192
7081
AUG : 5
total 5192
7081
Video Count : 2 MVI_9221.MOV
AUG : 0
total 5192
7081
AUG : 1
total 5192
7081
AUG : 2
total 5192
7081
AUG : 3
total 5192
7081
AUG : 4
total 5192
7081
AUG : 5
total 5192
7081
Video Count : 3 MVI_5191.MOV
AUG : 0
total 7080
7081
AUG : 1
total 7080
7081
AUG : 2
total 7080
7081
AUG : 3
total 7080
7081
AUG : 4
total 7080
7081
AUG : 5
total 7080
7081
Video Count : 4 MVI_9462.MOV
AUG : 0
total 6372
7081
AUG : 1
total 6372
7081
AUG : 2
total 6372
7081
AUG : 3
total 6372
7081
AUG : 4
total 6372
7081
AUG : 5
total 6372
7081
Video Count : 5 MVI_5189.MOV
AUG : 0
total 6726
7081
AUG : 1
total 6726
7081
AUG : 2
total 6726
7081
AUG : 3
total 6726
7081
AUG : 4
total 6726
7081
AUG : 5
total 6726
7081
Video Count : 6 MVI_5269.MOV
AUG : 0
total 6018
7081
AUG : 1
total 6018
7081
AUG : 2
total 6018
7081
AUG : 3
total 6018
7081
AUG : 4
total 6018
7081
AUG : 5
total 6018
7081
Video Count : 7 MVI_5270.MOV
AUG : 0
total 6018
7081
AUG : 1
total 6018
7081
AUG : 2
total 6018
7081
AUG : 3
total 6018
7081
AUG : 4
total 6018
7081
AUG : 5
total 6018
7081
Video Count : 8 MVI_5190.MOV
AUG : 0
total 6608
7081
AUG : 1
total 6608
7081
AUG : 2
total 6608
7081
AUG : 3
total 6608
7081
AUG : 4
total 6608
7081
AUG : 5
total 6608
7081
Video Count : 9 MVI_9461.MOV
AUG : 0
total 6726
7081
AUG : 1
total 6726
7081
AUG : 2
total 6726
7081
AUG : 3
total 6726
7081
AUG : 4
total 6726
7081
AUG : 5
total 6726
7081
Video Count : 10 MVI_9222.MOV
AUG : 0
total 5782
7081
AUG : 1
total 5782
7081
AUG : 2
total 5782
7081
AUG : 3
total 5782
7081
AUG : 4
total 5782
7081
AUG : 5
total 5782
7081
Video Count : 11 MVI_9303.MOV
AUG : 0
total 5782
7081
AUG : 1
total 5782
7081
AUG : 2
total 5782
7081
AUG : 3
total 5782
7081
AUG : 4
total 5782
7081
AUG : 5
total 5782
7081
Video Count : 12 MVI_9220.MOV
AUG : 0
total 5782
7081
AUG : 1
total 5782
7081
AUG : 2
total 5782
7081
AUG : 3
total 5782
7081
AUG : 4
total 5782
7081
AUG : 5
total 5782
7081
Video Count : 13 MVI_9463.MOV
AUG : 0
total 6608
7081
AUG : 1
total 6608
7081
AUG : 2
total 6608
7081
AUG : 3
total 6608
7081
AUG : 4
total 6608
7081
AUG : 5
total 6608
7081
Video Count : 14 MVI_9380.MOV
AUG : 0
total 6254
7081
AUG : 1
total 6254
7081
AUG : 2
total 6254
7081
AUG : 3
total 6254
7081
AUG : 4
total 6254
7081
AUG : 5
total 6254
7081
Video Count : 15 MVI_9382.MOV
AUG : 0
total 5310
7081
AUG : 1
total 5310
7081
AUG : 2
total 5310
7081
AUG : 3
total 5310
7081
AUG : 4
total 5310
7081
AUG : 5
total 5310
7081
Video Count : 16 MVI_9381.MOV
AUG : 0
total 5546
7081
AUG : 1
total 5546
7081
AUG : 2
total 5546
7081
AUG : 3
total 5546
7081
AUG : 4
total 5546
7081
AUG : 5
total 5546
7081
Video Count : 17 MVI_9301.MOV
AUG : 0
total 5782
7081
AUG : 1
total 5782
7081
AUG : 2
total 5782
7081
AUG : 3
total 5782
7081
AUG : 4
total 5782
7081
AUG : 5
total 5782
7081
Video Count : 18 MVI_5271.MOV
AUG : 0
total 6136
7081
AUG : 1
total 6136
7081
AUG : 2
total 6136
7081
AUG : 3
total 6136
7081
AUG : 4
total 6136
7081
AUG : 5
total 6136
7081
Video Count : 19 MVI_5111.MOV
AUG : 0
total 7080
7081
AUG : 1
total 7080
7081
AUG : 2
total 7080
7081
AUG : 3
total 7080
7081
AUG : 4
total 7080
7081
AUG : 5
total 7080
7081
Video Count : 20 MVI_5110.MOV
AUG : 0
total 7080
7081
AUG : 1
total 7080
7081
AUG : 2
total 7080
7081
AUG : 3
total 7080
7081
AUG : 4
total 7080
7081
AUG : 5
total 7080
7081
Video Count : 21 MVI_5112.MOV
AUG : 0
total 7080
7081
AUG : 1
total 7080
7081
AUG : 2
total 7080
7081
AUG : 3
total 7080
7081
AUG : 4
total 7080
7081
AUG : 5
total 7080
7081
Ges: 20 91. new
['MVI_5231.MOV', 'MVI_9423.MOV', 'MVI_5230.MOV', 'MVI_5150.MOV', 'MVI_9259.MOV', 'MVI_9340.MOV', 'MVI_9341.MOV', 'MVI_9342.MOV', 'MVI_5148.MOV', 'MVI_9421.MOV', 'MVI_9501.MOV', 'MVI_9500.MOV', 'MVI_5229.MOV', 'MVI_9502.MOV', 'MVI_5309.MOV', 'MVI_5307.MOV', 'MVI_9261.MOV', 'MVI_5151.MOV', 'MVI_9260.MOV', 'MVI_5308.MOV', 'MVI_9422.MOV']
Video Count : 1 MVI_5231.MOV
AUG : 0
total 7080
7081
AUG : 1
total 7080
7081
AUG : 2
total 7080
7081
AUG : 3
total 7080
7081
AUG : 4
total 7080
7081
AUG : 5
total 7080
7081
Video Count : 2 MVI_9423.MOV
AUG : 0
total 5782
7081
AUG : 1
total 5782
7081
AUG : 2
total 5782
7081
AUG : 3
total 5782
7081
AUG : 4
total 5782
7081
AUG : 5
total 5782
7081
Video Count : 3 MVI_5230.MOV
AUG : 0
total 6726
7081
AUG : 1
total 6726
7081
AUG : 2
total 6726
7081
AUG : 3
total 6726
7081
AUG : 4
total 6726
7081
AUG : 5
total 6726
7081
Video Count : 4 MVI_5150.MOV
AUG : 0
total 7080
7081
AUG : 1
total 7080
7081
AUG : 2
total 7080
7081
AUG : 3
total 7080
7081
AUG : 4
total 7080
7081
AUG : 5
total 7080
7081
Video Count : 5 MVI_9259.MOV
AUG : 0
total 5428
7081
AUG : 1
total 5428
7081
AUG : 2
total 5428
7081
AUG : 3
total 5428
7081
AUG : 4
total 5428
7081
AUG : 5
total 5428
7081
Video Count : 6 MVI_9340.MOV
AUG : 0
total 5782
7081
AUG : 1
total 5782
7081
AUG : 2
total 5782
7081
AUG : 3
total 5782
7081
AUG : 4
total 5782
7081
AUG : 5
total 5782
7081
Video Count : 7 MVI_9341.MOV
AUG : 0
total 5782
7081
AUG : 1
total 5782
7081
AUG : 2
total 5782
7081
AUG : 3
total 5782
7081
AUG : 4
total 5782
7081
AUG : 5
total 5782
7081
Video Count : 8 MVI_9342.MOV
AUG : 0
total 5546
7081
AUG : 1
total 5546
7081
AUG : 2
total 5546
7081
AUG : 3
total 5546
7081
AUG : 4
total 5546
7081
AUG : 5
total 5546
7081
Video Count : 9 MVI_5148.MOV
AUG : 0
total 6726
7081
AUG : 1
total 6726
7081
AUG : 2
total 6726
7081
AUG : 3
total 6726
7081
AUG : 4
total 6726
7081
AUG : 5
total 6726
7081
Video Count : 10 MVI_9421.MOV
AUG : 0
total 7080
7081
AUG : 1
total 7080
7081
AUG : 2
total 7080
7081
AUG : 3
total 7080
7081
AUG : 4
total 7080
7081
AUG : 5
total 7080
7081
Video Count : 11 MVI_9501.MOV
AUG : 0
total 5782
7081
AUG : 1
total 5782
7081
AUG : 2
total 5782
7081
AUG : 3
total 5782
7081
AUG : 4
total 5782
7081
AUG : 5
total 5782
7081
Video Count : 12 MVI_9500.MOV
AUG : 0
total 6608
7081
AUG : 1
total 6608
7081
AUG : 2
total 6608
7081
AUG : 3
total 6608
7081
AUG : 4
total 6608
7081
AUG : 5
total 6608
7081
Video Count : 13 MVI_5229.MOV
AUG : 0
total 6372
7081
AUG : 1
total 6372
7081
AUG : 2
total 6372
7081
AUG : 3
total 6372
7081
AUG : 4
total 6372
7081
AUG : 5
total 6372
7081
Video Count : 14 MVI_9502.MOV
AUG : 0
total 6136
7081
AUG : 1
total 6136
7081
AUG : 2
total 6136
7081
AUG : 3
total 6136
7081
AUG : 4
total 6136
7081
AUG : 5
total 6136
7081
Video Count : 15 MVI_5309.MOV
AUG : 0
total 5428
7081
AUG : 1
total 5428
7081
AUG : 2
total 5428
7081
AUG : 3
total 5428
7081
AUG : 4
total 5428
7081
AUG : 5
total 5428
7081
Video Count : 16 MVI_5307.MOV
AUG : 0
total 4602
7081
AUG : 1
total 4602
7081
AUG : 2
total 4602
7081
AUG : 3
total 4602
7081
AUG : 4
total 4602
7081
AUG : 5
total 4602
7081
Video Count : 17 MVI_9261.MOV
AUG : 0
total 5782
7081
AUG : 1
total 5782
7081
AUG : 2
total 5782
7081
AUG : 3
total 5782
7081
AUG : 4
total 5782
7081
AUG : 5
total 5782
7081
Video Count : 18 MVI_5151.MOV
AUG : 0
total 6962
7081
AUG : 1
total 6962
7081
AUG : 2
total 6962
7081
AUG : 3
total 6962
7081
AUG : 4
total 6962
7081
AUG : 5
total 6962
7081
Video Count : 19 MVI_9260.MOV
AUG : 0
total 5782
7081
AUG : 1
total 5782
7081
AUG : 2
total 5782
7081
AUG : 3
total 5782
7081
AUG : 4
total 5782
7081
AUG : 5
total 5782
7081
Video Count : 20 MVI_5308.MOV
AUG : 0
total 4956
7081
AUG : 1
total 4956
7081
AUG : 2
total 4956
7081
AUG : 3
total 4956
7081
AUG : 4
total 4956
7081
AUG : 5
total 4956
7081
Video Count : 21 MVI_9422.MOV
AUG : 0
total 5546
7081
AUG : 1
total 5546
7081
AUG : 2
total 5546
7081
AUG : 3
total 5546
7081
AUG : 4
total 5546
7081
AUG : 5
total 5546
7081
